^E:\VISUALSTUDIO PROJECTS\PP PROJEKAT\TASK_GROUP SOLUTION\FILEHANDLER.CPP|E:\VISUALSTUDIO PROJECTS\PP PROJEKAT\TASK_GROUP SOLUTION\MAIN.CPP|E:\VISUALSTUDIO PROJECTS\PP PROJEKAT\TASK_GROUP SOLUTION\MAPPER.CPP
E:\VISUALSTUDIO PROJECTS\PP PROJEKAT\TASK_GROUP SOLUTION\DEBUG\VC142.PDB
E:\VISUALSTUDIO PROJECTS\PP PROJEKAT\TASK_GROUP SOLUTION\DEBUG\VC142.IDB
E:\VISUALSTUDIO PROJECTS\PP PROJEKAT\TASK_GROUP SOLUTION\DEBUG\MAPPER.OBJ
E:\VISUALSTUDIO PROJECTS\PP PROJEKAT\TASK_GROUP SOLUTION\DEBUG\MAIN.OBJ
E:\VISUALSTUDIO PROJECTS\PP PROJEKAT\TASK_GROUP SOLUTION\DEBUG\FILEHANDLER.OBJ
^E:\VISUALSTUDIO PROJECTS\PP PROJEKAT\TASK_GROUP SOLUTION\FILEHANDLER.CPP
E:\VISUALSTUDIO PROJECTS\PP PROJEKAT\TASK_GROUP SOLUTION\DEBUG\VC142.PDB
^E:\VISUALSTUDIO PROJECTS\PP PROJEKAT\TASK_GROUP SOLUTION\MAPPER.CPP
E:\VISUALSTUDIO PROJECTS\PP PROJEKAT\TASK_GROUP SOLUTION\DEBUG\VC142.PDB
^E:\VISUALSTUDIO PROJECTS\PP PROJEKAT\TASK_GROUP SOLUTION\MAIN.CPP
E:\VISUALSTUDIO PROJECTS\PP PROJEKAT\TASK_GROUP SOLUTION\DEBUG\VC142.PDB
E:\VISUALSTUDIO PROJECTS\PP PROJEKAT\TASK_GROUP SOLUTION\DEBUG\VC142.IDB
E:\VISUALSTUDIO PROJECTS\PP PROJEKAT\TASK_GROUP SOLUTION\DEBUG\MAIN.OBJ
