^E:\VISUALSTUDIO PROJECTS\PP PROJEKAT\TASK_GROUP SOLUTION\DEBUG\FILEHANDLER.OBJ|E:\VISUALSTUDIO PROJECTS\PP PROJEKAT\TASK_GROUP SOLUTION\DEBUG\MAIN.OBJ|E:\VISUALSTUDIO PROJECTS\PP PROJEKAT\TASK_GROUP SOLUTION\DEBUG\MAPPER.OBJ
E:\VISUALSTUDIO PROJECTS\PP PROJEKAT\SERIAL SOLUTION\DEBUG\TASK_GROUP SOLUTION.EXE
E:\VISUALSTUDIO PROJECTS\PP PROJEKAT\SERIAL SOLUTION\DEBUG\TASK_GROUP SOLUTION.ILK
E:\VISUALSTUDIO PROJECTS\PP PROJEKAT\SERIAL SOLUTION\DEBUG\TASK_GROUP SOLUTION.PDB
