2557 2815 2342 2475 2642 2369 2212 2160 2273 2413 2571 2400 2325 2492 2598 2670 2588 2396 2773 2554 2525 2702 2484 2603 2451 2736 2342 2666 2885 2327 2526 2682 2351 2282 2407 2155 2539 2745 2348 2301 3112 2449 2792 2353 2054 2887 2789 2691 2270 2295 2699 2902 2494 2588 2876 2666 2442 2858 2588 2739 2095 2688 2356 2663 2570 2459 2496 2592 2781 2800 2534 2788 2180 2694 2685 2317 2505 2779 2645 2780 2445 2804 2929 2581 2161 2498 2576 2707 2270 2396 2415 2551 2870 2422 2550 2276 2778 2523 2816 2659 2484 
2335 2470 2012 1954 2473 2213 1981 2083 2096 2052 2418 2268 2122 2381 2187 2369 2223 2222 2378 2450 2141 2473 2314 2138 2413 2520 2373 2390 2463 2326 2160 2197 2172 2276 2470 2059 2262 2626 2106 2325 2777 2109 2395 2191 2406 2361 2520 2353 2027 2334 2370 2383 2174 2354 2549 2311 2237 2514 2365 2301 2204 2616 2297 2377 2158 2371 2490 2272 2461 2304 2269 2584 2085 2229 2395 1981 2592 2188 2177 2438 2264 2473 2688 2445 1874 2247 2426 2329 2132 2198 2509 2286 2438 2271 2386 2160 2571 2101 2710 2513 2185 
2785 2683 2320 2370 2707 2287 2445 2434 2207 2497 2660 2416 2233 2606 2646 2537 2552 2398 2422 2644 2465 2840 2549 2674 2709 2891 2581 2428 2569 2550 2503 2598 2492 2394 2577 2356 2526 2891 2174 2478 3095 2292 2784 2428 2552 2631 2739 2508 2275 2408 2550 2516 2641 2605 2719 2562 2503 2863 2387 2775 2450 2706 2514 2552 2663 2481 2557 2510 2653 2714 2690 2608 2478 2766 2627 2421 2598 2581 2592 2617 2610 2766 2966 2565 2201 2390 2761 2768 2274 2616 2765 2663 2721 2618 2390 2361 2745 2598 3024 2828 2476 
2099 2299 1846 2126 2216 2042 1896 2027 1734 2095 2193 1948 1848 2038 1911 2124 2014 2007 2135 2296 2063 2354 1929 2200 2210 2443 2167 2116 2350 1942 2162 2259 2205 2130 2156 1878 2133 2212 1911 2090 2541 2314 2163 2043 2153 2171 2269 2258 1798 1895 2247 2191 2313 2173 2320 2218 1993 2302 2061 2355 1896 2295 2000 2189 2100 1972 1956 2020 2296 2207 2086 2298 2236 2050 2276 2010 2143 2254 2245 2173 2157 2156 2432 2111 1793 2001 2303 2286 2052 2240 2569 2243 2345 2349 2195 1884 2361 2169 2305 2311 2201 
2382 2447 2166 2117 2529 2120 2217 2155 1937 2108 2169 2117 1981 2272 2384 2196 2194 1979 2306 2451 2148 2473 2187 2198 2397 2417 2138 2232 2352 1990 2188 2280 2159 2095 2397 2040 2369 2513 1923 2114 2906 2073 2390 2015 2102 2243 2527 2190 2131 2192 2308 2209 2483 2322 2322 2378 2180 2478 2199 2378 2065 2541 2330 2272 2116 2175 2298 2217 2386 2375 2323 2319 2122 2281 2360 2138 2259 2440 2367 2392 2259 2560 2577 2136 2024 2277 2216 2428 1921 2222 2444 2220 2497 2303 2243 1940 2455 2071 2747 2470 2165 
2311 2495 2265 2212 2497 2250 2278 2032 2104 2146 2395 2191 2038 2282 2248 2229 2312 2140 2399 2320 2183 2576 2312 2397 2516 2578 2252 2407 2440 2078 2208 2457 2338 2180 2328 2141 2218 2605 2064 2317 2803 2037 2506 2057 2325 2283 2585 2423 2086 2276 2533 2379 2307 2574 2299 2496 2252 2503 2463 2574 2005 2323 2432 2495 2337 2580 2303 2425 2414 2422 2228 2522 2372 2412 2399 2221 2494 2417 2186 2439 2342 2552 2887 2191 2088 2347 2311 2560 2097 2412 2562 2246 2585 2324 2308 1995 2569 2192 2773 2548 2232 
2662 2588 2551 2328 2747 2275 2284 2154 2191 2189 2508 2432 2194 2674 2403 2573 2270 2105 2526 2808 2519 2610 2251 2485 2754 2777 2566 2568 2612 2529 2524 2386 2378 2237 2476 2511 2495 2768 2246 2467 3031 2292 2709 2490 2382 2564 2846 2434 2320 2545 2407 2671 2318 2491 2601 2652 2449 2810 2369 2748 2276 2819 2516 2658 2353 2696 2596 2499 2901 2515 2444 2738 2154 2613 2622 2198 2596 2479 2297 2651 2372 2767 3143 2407 2305 2359 2610 2490 2398 2545 2647 2387 2797 2509 2500 2330 2830 2613 2810 2713 2529 
2776 2788 2429 2492 2527 2394 2425 2370 2181 2297 2490 2115 2244 2539 2492 2587 2239 2372 2428 2487 2368 2672 2630 2527 2560 2824 2391 2457 2556 2411 2393 2656 2535 2283 2486 2309 2491 2626 2224 2481 2971 2245 2768 2285 2419 2463 2735 2612 2148 2427 2635 2749 2310 2406 2749 2620 2419 2852 2568 2506 2333 2638 2483 2613 2493 2340 2690 2395 2587 2466 2528 2760 2225 2758 2541 2400 2370 2788 2571 2299 2507 2838 2842 2591 2319 2326 2386 2720 2265 2379 2461 2512 2703 2486 2388 2406 2575 2403 2702 2543 2647 
2541 2508 2316 2322 2381 2315 2327 2145 2124 2255 2603 2429 2043 2414 2346 2373 2344 2328 2418 2555 2302 2672 2437 2486 2584 2582 2571 2613 2610 2437 2493 2471 2488 2377 2415 2283 2400 2649 2164 2377 2980 2260 2524 2256 2533 2551 2651 2394 2216 2399 2465 2479 2432 2470 2604 2443 2299 2659 2446 2538 2235 2606 2466 2445 2459 2410 2509 2496 2674 2506 2545 2595 2308 2566 2437 2327 2622 2429 2382 2445 2424 2545 2843 2400 2153 2360 2597 2623 2314 2486 2569 2378 2625 2507 2416 2207 2676 2531 2844 2569 2339 
2604 2603 2413 2381 2478 2273 2285 2094 2079 2046 2259 2101 1929 2540 2264 2395 2374 2229 2500 2466 2192 2585 2214 2433 2388 2676 2246 2411 2454 2236 2430 2374 2225 2202 2419 2002 2413 2635 2061 2312 2599 1899 2629 1995 2086 2585 2681 2460 2107 2357 2334 2546 2388 2471 2620 2321 2474 2587 2357 2585 2080 2377 2258 2178 2289 2229 2403 2327 2508 2247 2411 2555 2114 2464 2495 2261 2505 2353 2296 2397 2239 2580 2635 2346 2061 2212 2472 2715 2094 2294 2324 2355 2633 2368 2076 2108 2493 2402 2753 2357 2273 
2716 2594 2430 2510 2543 2394 2126 2156 2108 2433 2586 2374 2257 2444 2459 2509 2472 2488 2672 2496 2313 2797 2308 2543 2621 2724 2495 2497 2872 2314 2668 2546 2414 2460 2403 2234 2395 2671 2495 2410 2960 2427 2845 2431 2455 2662 2787 2662 2336 2290 2651 2805 2463 2771 2881 2671 2404 2658 2730 2529 2156 2680 2609 2660 2506 2577 2673 2498 2692 2725 2667 2743 2432 2633 2479 2242 2406 2640 2458 2764 2537 2739 2979 2484 2243 2504 2364 2734 2231 2365 2805 2448 2804 2559 2593 2366 2853 2400 2987 2588 2398 
2463 2558 2100 2153 2506 2149 2127 2145 2065 2088 2519 2280 2143 2285 2277 2365 2359 2270 2460 2490 2169 2540 2327 2520 2395 2477 2365 2349 2470 2286 2267 2461 2415 2300 2297 2185 2400 2630 1945 2258 2675 1951 2506 2137 2173 2465 2550 2420 2163 2303 2265 2320 2342 2406 2665 2459 2264 2541 2233 2239 2186 2439 2329 2440 2114 2069 2396 2228 2643 2340 2130 2737 2193 2443 2533 2072 2466 2355 2309 2282 2298 2477 2758 2249 2150 2234 2525 2508 2102 2236 2480 2459 2626 2437 2283 2264 2465 2252 2696 2436 2211 
2770 2745 2684 2562 2939 2465 2189 2301 2212 2397 2702 2386 2404 2578 2640 2710 2657 2480 2787 2712 2377 2902 2529 2597 2741 2848 2430 2778 2776 2406 2471 2708 2499 2522 2677 2424 2467 2801 2537 2704 3028 2560 2744 2520 2631 2768 2677 2786 2314 2618 2805 2701 2537 2763 2885 2646 2399 2882 2811 2606 2370 2763 2791 2609 2408 2451 2748 2578 2731 2643 2575 2879 2424 2761 2743 2528 2730 2918 2697 2802 2598 2857 3023 2445 2506 2503 2566 2878 2368 2724 2754 2781 2878 2612 2598 2343 2928 2173 3081 2915 2523 
2280 2543 2038 2233 2391 2151 1990 2133 2024 2313 2356 2072 2090 2186 2160 2386 2066 2031 2376 2269 2218 2561 2342 2309 2563 2504 2134 2443 2540 2191 2421 2391 2423 2094 2330 2048 2302 2597 1915 2230 2764 2117 2342 2228 2249 2337 2448 2293 2098 2229 2261 2475 2323 2457 2345 2427 2078 2701 2333 2196 2139 2505 2564 2407 2069 2380 2445 2209 2393 2326 2265 2436 2157 2166 2461 2066 2275 2385 2268 2370 2317 2563 2652 2148 2058 2348 2363 2248 2158 2160 2403 2263 2551 2375 2305 2041 2527 2116 2632 2373 2310 
2345 2446 2049 2189 2456 2135 2099 2180 1935 2111 2343 2158 2006 2312 2225 2299 2313 2160 2370 2424 2248 2313 2261 2436 2515 2592 2384 2509 2657 2303 2386 2270 2277 2092 2154 2096 2265 2499 2123 2233 2587 2151 2465 2324 2180 2371 2632 2472 2068 2225 2447 2631 2201 2389 2562 2417 2376 2579 2284 2392 2045 2497 2189 2477 2245 2355 2327 2215 2596 2530 2428 2546 2254 2377 2592 2173 2390 2454 2282 2478 2198 2474 2701 2209 1902 2145 2585 2398 2178 2237 2413 2474 2680 2371 2396 2187 2656 2332 2519 2562 2455 
2397 2674 2289 2112 2478 2337 2238 2198 2084 2253 2348 2236 2045 2415 2301 2262 2393 2309 2505 2376 2256 2544 2196 2460 2309 2617 2374 2588 2801 2064 2408 2622 2153 2122 2215 2036 2510 2573 2155 2429 2632 2042 2453 2212 1992 2402 2640 2517 2181 2185 2378 2636 2358 2447 2507 2236 2335 2515 2568 2426 2081 2455 2398 2470 2366 2270 2459 2264 2824 2554 2236 2604 2213 2521 2420 2058 2370 2670 2345 2478 2274 2365 2596 2233 2227 2251 2404 2411 2088 2240 2415 2561 2649 2342 2356 2226 2580 2421 2484 2590 2447 
2635 2612 2467 2525 2710 2430 2442 2235 2063 2290 2625 2313 2317 2608 2546 2654 2777 2409 2674 2677 2334 2882 2442 2615 2516 2831 2593 2642 2638 2342 2399 2644 2675 2407 2340 2236 2510 2676 2490 2620 2930 2429 2631 2456 2350 2767 2889 2769 2254 2437 2702 2683 2409 2740 2976 2596 2559 2720 2773 2656 2185 2677 2637 2577 2529 2544 2685 2565 2730 2601 2472 2862 2369 3046 2548 2341 2624 2761 2568 2812 2547 2684 2986 2557 2233 2466 2681 2716 2284 2645 2485 2770 2828 2487 2316 2298 2925 2393 2822 2860 2590 
2388 2614 2319 2269 2605 2295 2083 2087 2093 2153 2334 2160 2129 2401 2445 2297 2346 2365 2588 2418 2335 2510 2295 2239 2242 2632 2258 2359 2567 2138 2418 2425 2242 2159 2374 2159 2422 2526 2191 2389 2729 2333 2399 2294 2052 2378 2584 2443 2181 2304 2321 2458 2270 2442 2460 2333 2201 2771 2436 2436 2179 2567 2360 2346 2214 2248 2373 2334 2567 2339 2207 2582 2080 2231 2519 2074 2332 2445 2409 2438 2385 2612 2646 2413 2168 2314 2345 2441 2036 2250 2476 2281 2595 2380 2177 2074 2719 2177 2666 2445 2417 
2607 2946 2283 2422 2835 2379 2243 2335 2152 2337 2459 2421 2057 2601 2501 2672 2481 2433 2584 2488 2229 2855 2329 2570 2317 2951 2348 2570 2550 2231 2531 2671 2460 2399 2541 2156 2569 2876 2193 2578 2932 2174 2664 2299 2384 2578 2603 2458 2307 2450 2422 2592 2646 2504 2630 2447 2335 2715 2579 2593 2188 2524 2735 2417 2350 2338 2624 2431 2383 2465 2575 2583 2490 2531 2679 2257 2361 2483 2438 2469 2531 2796 2926 2509 2176 2468 2553 2756 2257 2405 2718 2533 2622 2712 2341 2243 2602 2359 2955 2860 2333 
2310 2618 2106 2146 2449 2246 2030 2024 2139 2102 2349 2012 1974 2324 2181 2325 2143 2294 2323 2264 1895 2337 2182 2256 2558 2351 2258 2268 2382 1886 2182 2338 2132 2054 2464 1895 2260 2503 1951 2084 2681 1998 2392 1880 2181 2240 2414 2413 1926 2067 2589 2338 2230 2290 2398 2417 2380 2374 2368 2379 2033 2224 2380 2338 2168 2161 2413 2225 2449 2276 2286 2586 2210 2439 2341 2031 2412 2435 2241 2134 2427 2505 2481 2287 1989 2103 2146 2322 1972 2344 2325 2380 2333 2058 2089 2215 2438 2069 2430 2321 2125 
2367 2653 2222 2278 2431 2173 2097 2130 1966 2255 2175 2181 1939 2309 2118 2373 2435 2404 2374 2439 2115 2528 2016 2387 2296 2537 2386 2313 2625 2055 2363 2472 2214 2323 2240 2016 2327 2577 2182 2264 2741 2259 2431 2226 2234 2379 2575 2466 2138 2076 2380 2527 2440 2356 2645 2352 2264 2445 2487 2288 1871 2367 2246 2340 2145 2153 2296 2401 2470 2190 2360 2580 2243 2453 2438 2182 2240 2398 2263 2403 2292 2457 2600 2266 1853 2217 2349 2605 2084 2369 2597 2379 2450 2371 2244 2095 2493 2270 2665 2471 2156 
2460 2505 2039 2201 2440 2135 2221 2022 2105 2200 2217 2235 1920 2418 2324 2295 2378 2158 2294 2379 2195 2418 2099 2203 2216 2703 2318 2159 2452 2178 2291 2273 2075 2028 2187 2112 2394 2709 2037 2433 2582 2069 2363 2222 2091 2310 2617 2430 1970 2092 2187 2213 2274 2357 2385 2359 2222 2489 2086 2445 2084 2459 2329 2253 2349 2235 2330 2231 2359 2376 2311 2456 2037 2217 2443 2134 2341 2288 2289 2414 2259 2485 2710 2293 1989 2276 2540 2488 2000 2244 2527 2320 2566 2254 2118 2189 2471 2204 2618 2473 2294 
2654 2543 2443 2339 2657 2403 2453 2304 2342 2262 2510 2221 2113 2522 2281 2581 2327 2200 2426 2489 2229 2591 2254 2516 2777 2742 2468 2494 2521 2399 2343 2413 2321 2322 2452 2307 2453 2571 2355 2373 2888 2301 2634 2280 2345 2376 2649 2639 2159 2316 2552 2717 2369 2509 2614 2500 2539 2680 2366 2646 2066 2636 2433 2469 2447 2583 2541 2422 2520 2482 2445 2750 2380 2542 2495 2349 2622 2582 2379 2557 2376 2655 2916 2409 2251 2164 2608 2642 2326 2433 2493 2504 2785 2312 2301 2319 2612 2283 2830 2715 2374 
2543 2531 2338 2395 2575 2369 2385 2349 2050 2572 2376 2189 2136 2495 2300 2382 2301 2169 2396 2376 2258 2704 2327 2488 2470 2773 2271 2337 2340 2237 2335 2512 2527 2253 2262 2240 2246 2628 2235 2450 2811 2201 2680 2416 2327 2537 2684 2521 2070 2256 2458 2570 2391 2409 2737 2511 2406 2808 2587 2402 1991 2553 2400 2328 2473 2413 2472 2464 2439 2324 2467 2407 2172 2630 2429 2171 2493 2504 2376 2447 2438 2729 2769 2221 2002 2267 2458 2552 2214 2380 2468 2320 2645 2405 2228 2156 2566 2354 2725 2541 2164 
2571 2510 2313 2172 2666 2317 2306 2276 2214 2510 2469 2220 2124 2447 2332 2451 2260 2294 2589 2483 2301 2764 2348 2321 2516 2742 2237 2437 2573 2305 2431 2444 2410 2333 2477 2243 2423 2646 2218 2423 3024 2240 2580 2347 2445 2509 2779 2604 2331 2352 2584 2458 2536 2513 2589 2553 2392 2629 2426 2596 2221 2590 2526 2405 2415 2482 2641 2551 2449 2548 2689 2498 2402 2426 2631 2250 2470 2521 2516 2530 2447 2750 2871 2232 2257 2505 2423 2600 2158 2507 2692 2595 2685 2414 2439 2292 2631 2140 2964 2659 2352 
2207 2105 1967 1894 2284 2118 1928 1900 1859 1946 2292 2200 1759 2173 1984 2306 1941 1898 2212 2137 1871 2113 1935 2080 2199 2425 2285 2191 2246 2119 1948 2296 2097 2028 2028 2006 1972 2417 2006 2018 2545 1940 2213 2065 2325 2116 2229 2335 1667 2051 2166 2179 1888 2176 2225 1994 2108 2275 2080 2091 1644 2208 2155 2168 2001 2034 2130 1906 2060 2046 2177 2311 2080 2150 2178 1887 2192 2221 2007 2243 2203 2072 2511 1886 1657 1997 2153 2200 1932 1950 2215 1968 2293 2117 1973 1997 2320 2127 2380 2180 1935 
2177 2345 2137 2137 2391 2241 2071 2056 1828 2268 2154 2016 1795 2246 2054 2174 2251 2058 2249 2304 1934 2243 1903 2119 2170 2478 2083 2258 2277 2166 2036 2257 2042 2209 2238 1961 2242 2210 1787 2085 2405 2092 2454 2024 2142 2322 2521 2256 1795 1946 2373 2361 2250 2144 2374 2060 2186 2265 2303 2248 1742 2130 2171 2187 2273 2264 2243 2275 2260 2124 2217 2409 2194 2230 2348 2012 2169 2371 2280 2186 2225 2408 2511 1928 1950 2089 2243 2291 1923 2329 2351 2161 2313 2139 2184 2040 2366 2357 2361 2187 2103 
2608 2566 2354 2369 2624 2337 2370 2305 2329 2445 2642 2208 2048 2544 2383 2559 2499 2494 2440 2695 2252 2686 2316 2509 2806 2700 2406 2516 2549 2508 2421 2418 2292 2420 2651 2385 2360 2678 2102 2422 2931 2383 2472 2205 2577 2674 2741 2546 2178 2197 2650 2660 2332 2555 2589 2387 2353 2656 2476 2586 2027 2605 2465 2436 2407 2373 2529 2554 2533 2485 2566 2651 2374 2443 2645 2385 2721 2465 2480 2653 2500 2650 2747 2401 2178 2501 2697 2605 2322 2573 2804 2413 2598 2406 2383 2074 2699 2401 2843 2677 2413 
2439 2088 2114 1996 2152 2151 1965 1955 1897 2099 2161 2021 1946 2217 2044 2094 1984 1868 2118 2231 1947 2254 2104 2233 2216 2432 2199 2118 2123 2121 2119 2171 2059 2016 2164 2081 2042 2311 1993 2143 2345 1939 2256 1982 2080 2252 2299 2221 1807 2044 2335 2185 2072 2282 2291 2194 1946 2457 2184 2112 1872 2256 2134 2276 2039 2151 2158 2192 2154 2127 2143 2339 1977 2134 2192 1927 2178 2244 2143 2165 2150 2374 2444 1916 1871 2059 2185 2237 2022 1996 2310 2037 2484 2077 2216 1776 2344 2015 2303 2205 2060 
2496 2777 2082 2146 2615 2358 2443 2271 2267 2391 2462 2333 2048 2569 2362 2440 2415 2333 2435 2565 2335 2829 2282 2438 2525 2798 2467 2533 2611 2306 2532 2679 2424 2181 2436 2206 2476 2992 2192 2541 2950 2134 2584 2212 2296 2464 2781 2434 2166 2282 2291 2431 2363 2427 2640 2447 2451 2695 2312 2532 2267 2689 2399 2500 2233 2327 2359 2338 2695 2511 2510 2510 2253 2541 2480 2155 2448 2444 2279 2497 2316 2563 2761 2384 2019 2452 2794 2680 2038 2337 2598 2656 2545 2423 2349 2273 2576 2335 2804 2792 2443 
2341 2453 2213 2182 2370 2114 2216 1940 2063 2149 2202 1981 1911 2382 2139 2254 2178 2059 2353 2274 2087 2517 2149 2299 2155 2515 2342 2275 2312 2186 2175 2291 2230 2139 2313 2094 1941 2549 2184 2386 2660 2022 2437 2205 2088 2349 2516 2427 1960 2061 2281 2401 2225 2310 2577 2344 2167 2552 2244 2266 1829 2291 2279 2169 2103 2276 2192 2166 2386 2260 2165 2379 2105 2541 2458 1973 2453 2234 2195 2366 2168 2420 2523 2191 2050 2196 2382 2279 2024 2099 2328 2290 2445 2238 2083 2219 2632 2291 2700 2340 2316 
2375 2399 2174 2175 2263 2208 2101 2131 1949 2296 2445 2042 1977 2292 2164 2331 2325 2222 2401 2379 2269 2507 2132 2035 2300 2555 2241 2428 2404 2113 2320 2357 2294 2116 2244 2069 2272 2382 2172 2128 2672 1974 2613 2002 2137 2442 2563 2299 1991 2096 2438 2376 2151 2360 2545 2455 2305 2425 2365 2303 1888 2206 2359 2383 2149 2341 2282 2301 2463 2197 2274 2541 2197 2336 2269 1990 2416 2326 2159 2342 2226 2503 2656 2166 1971 2203 2423 2414 2002 2127 2377 2207 2416 2179 2283 2042 2559 2237 2571 2307 2212 
2659 2507 2215 2291 2510 2418 2239 2116 2033 2254 2469 2342 2468 2677 2505 2778 2572 2564 2671 2526 2415 2782 2353 2504 2577 2760 2367 2580 2720 2669 2518 2653 2435 2296 2471 2335 2488 2740 2386 2383 2924 2147 2661 2404 2526 2764 2598 2531 2257 2426 2620 2621 2319 2742 2648 2514 2574 2737 2515 2569 2139 2800 2613 2402 2325 2435 2504 2504 2594 2377 2556 2770 2294 2529 2755 2105 2601 2394 2533 2542 2415 2712 3005 2534 2163 2205 2646 2725 2304 2558 2669 2545 3010 2459 2386 2262 2859 2153 2758 2677 2292 
2339 2383 2332 2237 2506 2256 2305 2189 1907 2435 2493 2550 2191 2426 2328 2584 2495 2411 2352 2638 2256 2781 2240 2387 2518 2765 2415 2561 2581 2311 2481 2548 2288 2192 2284 2353 2373 2499 2133 2353 2886 2080 2557 2287 2511 2487 2539 2320 2154 2329 2534 2604 2471 2663 2623 2481 2292 2506 2421 2365 2126 2689 2530 2492 2364 2239 2564 2429 2703 2293 2338 2608 2242 2428 2555 2010 2492 2487 2340 2424 2476 2643 2736 2292 2039 2355 2523 2505 2390 2450 2750 2379 2693 2538 2483 2147 2621 2453 2730 2520 2380 
2610 2815 2467 2493 2575 2256 2290 2197 2300 2390 2412 2229 2143 2624 2333 2515 2360 2430 2433 2538 2336 2819 2546 2395 2508 2757 2407 2515 2468 2190 2417 2484 2395 2330 2592 2401 2463 2731 2258 2493 3039 2177 2720 2305 2447 2490 2569 2606 2266 2366 2460 2650 2477 2544 2577 2443 2507 2678 2598 2635 2187 2509 2591 2540 2420 2514 2597 2476 2610 2378 2396 2702 2357 2685 2548 2247 2722 2503 2296 2594 2639 2778 2994 2490 2232 2410 2430 2498 2179 2656 2511 2612 2610 2599 2269 2188 3005 2446 2894 2644 2370 
2190 2391 2086 2180 2306 2237 2222 2083 1864 2118 2165 2172 1836 2079 2102 2280 2119 2231 2246 2252 2048 2522 2130 2175 2219 2431 2163 2373 2394 2021 2297 2328 2162 2071 2310 2237 2177 2423 1869 2120 2600 1983 2355 1963 2176 2406 2527 2308 1900 2083 2181 2457 2073 2357 2275 2245 2154 2579 2281 2364 1797 2239 2357 2320 2233 2193 2192 2266 2426 2287 2242 2267 2035 2193 2285 2010 2298 2022 2248 2336 2181 2436 2437 2101 1977 2223 2425 2407 2069 2054 2572 2195 2410 2218 2010 1941 2419 2348 2474 2236 2213 
2147 2079 1978 2041 2140 1960 1916 1895 1772 2035 2096 2023 2000 2137 1977 2063 2138 1842 2055 2308 2118 2198 1970 2099 2216 2338 2148 2118 2322 2116 2035 2243 1967 1873 2126 1892 2023 2248 2000 2086 2577 1941 2202 1973 2051 2215 2367 1958 1875 1931 2120 2197 2174 2116 2432 2099 2084 2272 2096 2145 1998 2315 2123 2195 1847 2012 2077 1933 2273 2083 2178 2467 1940 2062 2151 1901 2217 2330 2141 2192 1947 2081 2374 1971 1987 2104 2242 2322 1988 2077 2361 2064 2280 2061 2100 1782 2330 2004 2476 2281 2114 
2502 2537 2226 2138 2578 2253 2381 2291 2136 2225 2485 2258 2113 2567 2324 2527 2178 2316 2527 2414 2296 2592 2288 2427 2577 2610 2368 2401 2595 2395 2502 2510 2375 2174 2335 2267 2515 2686 2229 2337 3095 2053 2636 2188 2451 2441 2724 2531 2341 2176 2473 2457 2249 2532 2643 2562 2470 2527 2138 2553 2094 2637 2445 2431 2429 2326 2601 2367 2362 2478 2621 2618 2307 2471 2501 2048 2474 2400 2458 2472 2506 2596 2811 2410 2056 2332 2238 2675 2007 2392 2501 2381 2570 2438 2244 2292 2509 2368 2770 2698 2293 
2526 2453 2198 2301 2446 2233 2208 2181 2177 2260 2446 2264 1908 2427 2184 2287 2226 2195 2379 2350 2120 2548 2255 2335 2457 2572 2337 2272 2281 2178 2399 2362 2367 2247 2298 2066 2410 2438 2103 2353 2672 2148 2420 2135 2242 2387 2460 2463 2091 2064 2518 2344 2242 2461 2485 2453 2277 2363 2277 2513 2098 2359 2327 2341 2428 2301 2393 2387 2258 2542 2618 2402 2310 2429 2323 2210 2313 2453 2225 2294 2392 2593 2688 2365 1970 2151 2479 2384 1969 2245 2363 2347 2566 2240 2159 2234 2571 2224 2644 2482 2274 
2007 2146 2199 2004 2020 2039 1950 1841 1772 1751 1928 1908 1965 1962 1838 2185 2043 1925 1939 2205 2105 2081 1918 1980 1914 2285 2140 1949 2113 1894 1823 1909 1959 1855 2000 1868 2043 1977 1961 1884 2260 1918 2064 1877 1994 2000 2221 2121 1667 1912 2249 2202 1956 1979 2242 2069 2142 2167 2149 2087 1711 2157 2018 1953 2099 1839 2212 1884 2191 2039 1859 2354 1902 2048 2212 1945 2204 2140 1961 2131 2017 2229 2337 1987 1935 1979 2087 2183 1877 2077 2203 2137 2241 2151 1930 1811 2069 1792 2319 2219 2065 
2776 3016 2436 2421 2759 2561 2594 2605 2349 2611 2664 2492 2474 2673 2656 2703 2604 2554 2606 2913 2615 2978 2729 2554 2737 2915 2655 2803 2803 2457 2530 2863 2644 2591 2605 2480 2745 3005 2370 2613 3240 2321 2896 2522 2704 2566 2762 2723 2384 2556 2813 2867 2711 2763 2940 2672 2635 2939 2646 2731 2341 2781 2722 2802 2686 2576 2747 2572 2884 2727 2706 3072 2621 2717 2887 2360 2926 2748 2667 2823 2561 3015 3039 2598 2559 2791 2631 2887 2518 2589 2881 2719 2845 2847 2628 2474 2962 2650 2992 2818 2499 
2297 2485 2003 2079 2317 1978 2020 2018 2043 1954 2296 2047 2086 2248 2263 2249 2220 2043 2349 2354 2141 2389 2322 2194 2237 2437 2290 2296 2282 2138 2104 2439 2262 2184 2313 1970 2154 2427 2060 2171 2614 2100 2423 1917 2217 2441 2344 2343 2070 2134 2193 2222 2118 2334 2460 2305 2100 2484 2244 2261 1925 2310 2016 2048 2038 2074 2333 2259 2231 2219 2236 2500 1956 2348 2476 2097 2457 2340 2350 2178 2007 2394 2534 2255 2087 2066 2269 2435 2075 2068 2139 2279 2499 2266 2191 1987 2386 1943 2617 2324 2018 
2507 2517 2342 2314 2404 2266 2300 2355 2212 2337 2405 2258 2174 2563 2210 2533 2398 2317 2699 2414 2326 2437 2292 2483 2621 2794 2308 2518 2504 2512 2336 2502 2535 2215 2541 2262 2416 2607 2354 2630 2881 2253 2610 2270 2422 2465 2749 2662 2159 2422 2600 2643 2578 2601 2712 2649 2360 2501 2507 2493 2066 2424 2593 2501 2402 2441 2537 2302 2637 2487 2487 2730 2404 2540 2583 2294 2657 2626 2544 2606 2428 2755 2712 2352 2224 2466 2541 2684 2282 2534 2581 2355 2773 2384 2551 2241 2696 2282 2836 2491 2518 
2505 2545 2256 2387 2373 2277 2314 2076 1977 2216 2290 2222 1946 2280 2420 2295 2453 2226 2234 2485 2183 2600 2389 2426 2196 2571 2284 2453 2510 2086 2396 2408 2225 2172 2320 2215 2381 2456 2115 2327 2683 2096 2410 2039 2088 2392 2464 2466 2018 2190 2436 2537 2228 2437 2604 2185 2431 2563 2326 2453 2065 2375 2276 2373 2355 2134 2358 2210 2380 2398 2512 2530 2127 2591 2481 2243 2349 2475 2359 2286 2260 2551 2749 2345 2241 2199 2571 2529 2070 2290 2369 2470 2530 2275 2113 2169 2541 2348 2521 2533 2215 
2335 2399 2147 2211 2359 2119 2160 2004 2016 2048 2223 2183 1965 2241 2173 2417 2082 2035 2163 2393 2178 2388 2077 2247 2424 2474 2393 2358 2357 2042 2102 2198 2139 2246 2428 2000 2099 2350 2095 2032 2760 2069 2279 2047 2270 2277 2445 2172 1924 2130 2468 2440 2266 2354 2535 2313 2079 2458 2420 2279 1815 2522 2256 2259 1984 2234 2314 2243 2339 2238 2216 2386 2169 2289 2351 2025 2280 2261 2307 2261 2303 2414 2685 2217 1835 2152 2404 2291 2179 2101 2587 2139 2462 2293 2154 2016 2419 2190 2687 2448 2293 
2156 2287 1891 1963 2137 2069 1725 1892 1800 1999 1948 1846 1736 2033 2088 2128 2025 1786 2084 2088 1845 2248 2100 2263 2219 2216 1853 2224 2322 1826 2054 2009 2054 1751 2182 1798 1971 2285 1787 1956 2378 1859 2108 1879 1736 2217 2189 2214 1838 2011 2188 2178 2115 2049 2250 2113 1936 2281 2109 2157 1752 2269 2012 1879 1988 1954 2147 2002 2094 2213 2110 2166 1835 2172 2284 1982 1947 2277 2177 2067 2128 2336 2270 1888 1902 1829 2106 2196 1928 2153 2106 2232 2282 1987 2039 1792 2147 1838 2285 2271 1914 
2508 2547 2270 2297 2614 2309 2542 2268 2111 2440 2547 2332 2015 2489 2352 2440 2353 2277 2467 2424 2151 2481 2264 2418 2500 2758 2459 2528 2631 2277 2467 2520 2296 2416 2397 2239 2462 2683 2142 2365 2902 2266 2490 2243 2561 2373 2599 2649 2143 2143 2650 2727 2543 2554 2560 2483 2371 2755 2252 2550 2186 2532 2345 2469 2472 2441 2380 2268 2487 2706 2486 2582 2678 2518 2499 2267 2502 2631 2427 2402 2526 2626 2795 2466 2100 2428 2607 2536 2168 2433 2751 2495 2607 2535 2310 2303 2564 2507 2790 2585 2347 
2553 2444 2402 2252 2503 2255 2047 2156 1876 2209 2456 2253 2154 2416 2281 2410 2134 2388 2312 2428 2307 2618 2202 2267 2568 2486 2264 2438 2545 2286 2352 2479 2221 2072 2398 2219 2347 2454 2200 2205 2790 2176 2598 2302 2443 2690 2503 2245 2012 2158 2546 2625 2323 2446 2451 2429 2282 2501 2379 2421 2188 2648 2611 2330 2234 2231 2465 2332 2755 2397 2405 2527 2342 2286 2533 2264 2481 2494 2369 2333 2313 2648 2716 2327 2243 2128 2470 2599 2329 2372 2739 2457 2460 2432 2383 2253 2694 2387 2652 2414 2333 
2512 2242 2139 1992 2356 2017 1931 1949 2037 2057 2331 2180 1803 2205 2043 2173 2136 2053 2212 2212 1881 2213 1973 2222 2332 2344 2292 2167 2265 2074 2135 2251 1861 2170 2134 1923 2272 2420 1953 2199 2596 2001 2368 1990 2080 2246 2414 2158 1965 1994 2324 2314 2292 2309 2425 2113 2161 2282 2235 2287 2053 2192 2185 2318 2079 2145 2221 2197 2336 2220 2251 2547 2243 2181 2120 2059 2076 2375 2239 2193 2105 2275 2493 2106 1892 2082 2107 2440 1993 2021 2356 2055 2304 2248 2326 2085 2348 2212 2578 2393 2060 
2629 2526 2299 2294 2381 2316 2352 1966 2006 2253 2413 2275 1895 2469 2410 2457 2143 2156 2454 2612 2210 2662 2295 2406 2476 2653 2348 2434 2521 2206 2234 2411 2149 2214 2491 2139 2374 2581 2127 2322 2747 2112 2651 2221 2116 2578 2673 2343 2138 2001 2706 2624 2248 2568 2501 2442 2194 2538 2260 2537 2069 2508 2365 2432 2332 2335 2423 2358 2451 2490 2474 2581 2335 2549 2537 2227 2312 2651 2457 2407 2332 2665 2655 2319 2297 2280 2294 2428 2162 2124 2416 2399 2606 2444 2385 2170 2547 2417 2743 2570 2498 
2461 2440 2352 2049 2408 2311 2221 2267 2091 2255 2531 2272 1821 2583 2260 2388 2336 2268 2442 2227 2203 2601 2226 2328 2288 2436 2280 2505 2407 2126 2356 2614 2192 2425 2487 2287 2315 2600 2104 2448 2845 2169 2507 2164 2333 2545 2437 2626 2392 2011 2684 2476 2409 2622 2551 2346 2094 2553 2408 2291 2171 2265 2445 2339 2212 2260 2461 2310 2285 2277 2380 2559 2362 2285 2482 2114 2422 2538 2410 2504 2471 2612 2592 2147 2293 2244 2319 2443 2207 2159 2598 2347 2314 2408 2432 2241 2596 2292 2740 2429 2158 
2352 2320 2081 2150 2135 2163 2156 2185 2121 2101 2260 1998 1834 2253 2134 2291 2112 2018 2291 2159 2019 2284 2108 2159 2211 2442 2102 2337 2292 2026 2067 2184 2182 2058 2234 1973 2169 2326 1873 2184 2535 2063 2356 1886 2087 2059 2482 2487 1984 2246 2315 2273 2238 2199 2419 2274 2254 2398 2256 2317 1810 2035 2226 2287 2334 2361 2371 2300 2365 2303 2188 2377 2123 2333 2233 1976 2367 2214 2173 2230 2404 2454 2505 2202 2041 2188 2221 2108 1960 2071 2146 2123 2407 2100 2146 1973 2475 2172 2544 2171 2195 
2332 2301 2229 2105 2424 2406 2151 2015 1869 2225 2386 2229 2074 2344 2261 2297 2288 2059 2349 2567 2256 2504 1992 2213 2472 2456 2346 2243 2430 2288 2239 2261 2284 2269 2270 1983 2344 2598 1932 2059 2883 2024 2561 2060 2167 2329 2439 2036 1973 1969 2531 2372 2419 2380 2539 2360 2233 2581 2186 2360 2192 2521 2303 2561 2165 2322 2298 2202 2557 2297 2254 2463 2400 2445 2261 2113 2407 2484 2200 2375 2469 2589 2780 2113 2020 2375 2396 2237 1949 2247 2597 2237 2494 2365 2217 2099 2432 2305 2562 2330 2230 
2259 2390 1933 1809 2304 2140 2103 2102 1938 2194 2428 1958 1851 2358 2277 2339 2208 1894 2259 2360 2140 2515 2117 2255 2263 2297 2240 2338 2186 2116 2290 2444 2270 2106 2248 1823 2280 2496 1945 2077 2626 2044 2273 1983 2134 2259 2356 2229 2052 1997 2409 2260 2110 2237 2208 2203 2116 2524 2155 2207 2050 2387 2172 2168 2145 2168 2321 2236 2256 2382 2119 2470 2237 2150 2296 1853 2318 2447 2169 2258 2251 2366 2279 2189 1868 2121 2239 2332 2068 2008 2154 2390 2315 2163 2287 2126 2280 2156 2249 2371 2088 
2342 2439 2030 2301 2382 2185 1980 2092 2113 2413 2339 2091 1976 2233 2107 2478 2341 2239 2399 2325 2311 2424 2073 2263 2500 2537 2262 2422 2683 2272 2296 2364 2170 2156 2338 1904 2159 2567 2075 2080 2865 2170 2456 2108 2264 2443 2616 2432 2045 2145 2505 2479 2392 2312 2573 2441 2325 2527 2331 2359 1951 2321 2277 2380 2289 2258 2394 2403 2647 2339 2427 2457 2239 2352 2548 2152 2332 2571 2409 2431 2546 2416 2533 2291 1909 2158 2518 2269 2052 2401 2501 2492 2525 2333 2331 2192 2602 2319 2592 2421 2427 
2507 2676 2179 2381 2535 2229 2305 1991 2243 2245 2333 2058 2219 2338 2243 2470 2309 2372 2441 2404 2231 2614 2237 2475 2650 2440 2216 2403 2751 2511 2526 2394 2472 2167 2280 2118 2335 2610 2121 2264 2757 2015 2435 2106 2293 2486 2746 2391 2132 2190 2398 2583 2352 2521 2546 2407 2238 2453 2466 2320 1972 2472 2671 2408 2327 2296 2539 2354 2564 2603 2354 2597 2311 2393 2518 2128 2395 2340 2273 2367 2334 2532 2608 2417 2277 2249 2406 2470 2287 2289 2546 2481 2618 2484 2169 2217 2584 2214 2591 2482 2255 
2435 2766 2338 2298 2673 2273 2247 2294 2044 2239 2264 2233 1981 2559 2408 2375 2308 2305 2342 2413 2100 2716 2293 2477 2292 2791 2210 2350 2419 2032 2351 2405 2119 2318 2454 2139 2503 2649 2053 2337 2717 2071 2575 2214 2220 2544 2509 2466 2198 2318 2386 2513 2433 2324 2494 2471 2151 2687 2342 2547 2276 2383 2400 2531 2385 2183 2372 2325 2569 2462 2538 2460 2203 2581 2451 2147 2299 2340 2497 2447 2339 2707 2796 2363 2226 2288 2442 2717 2023 2539 2700 2535 2527 2366 2189 2173 2636 2261 2582 2671 2225 
2373 2425 2010 2106 2357 2173 2234 1975 1957 2260 2315 2269 2042 2272 2208 2313 2114 2037 2470 2540 2084 2472 2214 2312 2335 2725 2272 2472 2375 2163 2203 2508 2313 2058 2238 2137 2287 2464 2068 2324 2545 1935 2346 2068 2190 2220 2436 2382 1992 2400 2277 2415 2202 2320 2302 2308 2116 2473 2270 2507 1720 2465 2386 2313 2191 2271 2347 2349 2364 2266 2361 2570 2183 2430 2264 1849 2367 2231 2296 2384 2190 2394 2678 2221 1990 2403 2332 2420 2063 2281 2282 2093 2722 2212 2191 1864 2372 2266 2570 2419 2223 
2500 2271 2095 2140 2373 2258 2164 1778 1864 2174 2537 2286 2023 2301 2443 2283 2236 2248 2473 2405 2039 2600 2213 2384 2486 2373 2205 2438 2681 2257 2299 2340 2146 2208 2263 2099 2203 2423 2051 2210 2698 2115 2382 2164 2194 2412 2526 2405 1916 2256 2519 2486 2203 2496 2350 2338 2152 2355 2321 2263 2060 2594 2347 2372 2178 2269 2368 2202 2534 2580 2306 2507 2109 2386 2255 2097 2236 2349 2232 2322 2281 2472 2715 2378 2057 2075 2504 2421 2076 2181 2455 2240 2507 2081 2222 2128 2579 2187 2575 2320 2222 
2292 2446 2182 2351 2271 2135 2234 2051 2235 2191 2294 2091 2063 2415 2153 2229 2208 2099 2245 2378 2106 2317 2197 2268 2401 2498 2335 2290 2261 2182 2274 2277 2211 2180 2321 2202 2299 2433 2089 2188 2650 2024 2629 2104 2102 2457 2550 2259 2174 2112 2406 2535 2350 2534 2569 2423 2173 2380 2407 2328 2093 2374 2186 2436 2192 2267 2394 2260 2363 2206 2215 2617 2099 2419 2278 1938 2289 2363 2448 2296 2366 2478 2556 2059 2140 2285 2265 2417 2216 2215 2263 2211 2552 2286 2279 2092 2548 2208 2637 2481 2334 
2688 2486 2216 2351 2481 2340 2432 2314 2018 2342 2468 2150 2218 2459 2392 2520 2547 2507 2363 2516 2187 2770 2278 2431 2537 2664 2314 2518 2546 2399 2603 2551 2354 2132 2411 2288 2329 2617 2168 2306 2725 1937 2752 2226 2264 2545 2737 2411 2221 2290 2542 2707 2446 2676 2546 2435 2331 2559 2433 2370 2182 2616 2535 2494 2284 2432 2388 2411 2608 2360 2298 2562 2352 2586 2487 2163 2312 2313 2457 2303 2423 2777 2731 2399 2103 2284 2645 2562 2246 2259 2544 2497 2623 2493 2556 2133 2631 2381 2713 2586 2414 
2591 2476 2383 2381 2612 2306 2417 2112 2083 2265 2393 2327 2006 2460 2245 2478 2299 2348 2518 2422 2337 2686 2154 2425 2362 2646 2367 2226 2340 2264 2227 2461 2246 2331 2498 2112 2340 2528 2096 2341 2915 2211 2603 2247 2160 2474 2633 2515 2184 2202 2485 2588 2512 2357 2594 2386 2412 2532 2396 2553 2030 2480 2325 2182 2434 2387 2381 2411 2479 2376 2455 2395 2269 2684 2500 2174 2409 2423 2421 2461 2370 2785 2820 2463 2143 2165 2470 2418 2125 2361 2424 2416 2580 2328 2161 2311 2592 2315 2859 2525 2360 
2323 2171 2037 2134 2155 1983 2317 1865 1871 2089 2422 2133 1756 2416 2272 2309 2261 2134 2533 2357 2018 2477 1957 2359 2035 2489 2292 2214 2271 2242 2211 2261 2127 2123 1992 1937 2103 2384 2172 2229 2628 2052 2334 1857 2152 2477 2304 2424 1977 1907 2442 2242 2203 2611 2524 2291 2134 2262 2171 2295 2004 2280 2156 2154 2235 2092 2276 2307 1977 2221 2343 2404 2064 2360 2170 1914 2124 2248 2185 2237 2199 2297 2462 2278 1866 2109 2298 2478 1952 2135 2209 2198 2471 2134 2161 1992 2301 2122 2546 2390 2083 
2353 2468 2111 2015 2402 2145 2043 1959 2087 2143 2154 2176 2177 2334 2203 2383 2171 2224 2231 2364 1986 2368 2121 2228 2223 2477 2273 2346 2379 2114 2143 2259 1964 2168 2331 2092 2266 2532 1982 2234 2680 1964 2318 2129 2184 2268 2351 2093 1993 2198 2292 2473 2257 2193 2414 2046 2191 2408 2410 2402 1961 2410 2179 2283 1939 2360 2231 2136 2460 2332 2184 2565 2179 2249 2176 1876 2262 2231 2145 2348 2144 2431 2595 2183 2137 2258 2293 2339 2005 2229 2505 2341 2392 2176 2110 2016 2437 2161 2563 2519 2223 
2637 2818 2528 2295 2841 2414 2416 2472 2329 2424 2522 2344 2325 2527 2321 2635 2396 2624 2617 2700 2291 2667 2185 2520 2554 2817 2591 2530 2534 2360 2316 2771 2431 2284 2481 2284 2673 2828 2293 2469 2974 2307 2623 2407 2461 2387 2781 2651 2264 2246 2541 2491 2505 2324 2699 2366 2463 2596 2624 2511 2031 2506 2540 2490 2514 2507 2611 2512 2682 2341 2264 2863 2384 2791 2557 2169 2699 2713 2442 2572 2467 2659 2934 2407 2107 2519 2383 2524 2291 2461 2665 2496 2646 2420 2314 2363 2657 2406 2721 2735 2541 
2290 2546 2171 2251 2539 2061 1988 2030 2005 2315 2406 2098 1911 2274 2213 2233 2256 2091 2232 2209 2052 2634 2136 2295 2242 2407 2127 2355 2307 2051 2350 2200 2263 2293 2204 2110 2260 2403 1971 2215 2756 1981 2422 2083 2144 2344 2370 2284 2090 2034 2305 2463 2433 2463 2543 2397 2281 2526 2364 2159 1919 2288 2302 2179 2086 2299 2393 2303 2452 2265 2179 2339 2223 2386 2550 2132 2526 2339 2181 2250 2282 2649 2668 2153 1986 2185 2276 2220 2145 2242 2316 2198 2438 2472 2206 2207 2558 2186 2556 2348 2122 
2374 2307 2161 2225 2543 1997 2159 1969 1981 2156 2428 2217 2014 2341 2329 2402 2341 2143 2214 2427 1992 2490 2157 2318 2474 2437 2239 2418 2397 2219 2388 2420 2195 2222 2252 2279 2321 2499 1993 2354 2682 2151 2409 2176 2374 2509 2549 2238 2070 2253 2152 2472 2375 2468 2353 2158 2166 2424 2416 2147 1976 2395 2279 2333 2077 2116 2415 2286 2419 2346 2233 2329 2092 2371 2462 2165 2224 2432 2198 2534 2259 2369 2536 2108 2022 2380 2459 2510 2219 2301 2392 2371 2422 2470 2268 1945 2457 2223 2767 2640 2245 
2629 3022 2407 2603 2765 2311 2404 2257 2437 2505 2548 2574 2384 2673 2669 2634 2558 2531 2652 2740 2324 3035 2612 2708 2683 2942 2623 2541 2691 2467 2523 2613 2455 2391 2690 2562 2501 3005 2500 2521 3206 2608 3014 2481 2531 2692 2838 2766 2422 2582 2707 2685 2599 2486 2942 2784 2461 3023 2770 2755 2276 2881 2463 2816 2577 2491 2873 2744 2853 2699 2607 2771 2230 2778 2726 2430 2775 2720 2554 2828 2785 2844 3083 2726 2325 2736 2633 2928 2342 2675 2900 2836 2686 2682 2561 2453 2842 2542 3061 2843 2712 
2593 2705 2284 2342 2640 2197 2299 2202 2252 2188 2394 2361 2192 2547 2328 2479 2389 2418 2466 2470 2238 2582 2231 2509 2436 2839 2494 2334 2462 2400 2333 2265 2274 2318 2394 2053 2494 2661 2205 2392 2643 2073 2671 2280 2298 2544 2582 2398 2052 2221 2552 2599 2487 2549 2589 2465 2327 2624 2406 2411 2215 2495 2484 2388 2395 2383 2599 2304 2526 2395 2396 2717 2234 2442 2676 2152 2499 2444 2350 2424 2286 2841 2805 2328 2221 2223 2540 2649 2332 2421 2558 2522 2631 2513 2356 2282 2628 2283 2666 2645 2358 
2509 2389 2239 2328 2418 2266 2270 2131 2140 2178 2564 2125 1972 2338 2205 2386 2227 2109 2404 2301 2276 2500 2068 2449 2394 2588 2544 2356 2494 2251 2417 2374 2179 2322 2291 1934 2168 2451 2223 2183 2649 2232 2490 2243 2210 2442 2737 2473 2163 2039 2519 2592 2325 2433 2444 2299 2297 2639 2362 2433 2099 2574 2253 2356 2267 2411 2422 2181 2574 2425 2306 2504 2264 2355 2506 2049 2418 2542 2336 2456 2344 2499 2689 2267 2011 2262 2425 2452 2141 2254 2397 2374 2608 2272 2378 2255 2560 2349 2587 2422 2337 
2895 2901 2509 2590 2651 2552 2343 2331 2412 2529 2815 2371 2178 2719 2463 2651 2505 2504 2554 2974 2434 2988 2533 2870 2634 2933 2594 2624 2712 2490 2509 2594 2394 2727 2749 2331 2702 2892 2389 2476 3045 2423 2771 2601 2473 2926 2806 2657 2551 2424 2643 2942 2600 2685 2780 2531 2483 2666 2635 2792 2365 2922 2618 2480 2580 2590 2788 2616 2727 2717 2631 3053 2556 2805 2688 2342 2606 2596 2623 2487 2620 2809 3042 2634 2432 2475 2734 2761 2553 2575 2753 2682 2874 2667 2658 2371 2909 2602 3082 2993 2424 
2671 2566 2427 2452 2570 2293 2113 2189 2142 2257 2380 2182 2171 2437 2316 2631 2293 2268 2544 2380 2190 2589 2176 2423 2330 2779 2312 2598 2707 2440 2402 2386 2076 2346 2285 2173 2202 2637 2144 2407 2825 2347 2760 2297 2288 2541 2652 2442 2170 2373 2476 2706 2415 2562 2679 2396 2382 2708 2412 2451 2149 2433 2233 2580 2262 2427 2507 2324 2532 2384 2437 2490 2111 2386 2590 2174 2520 2653 2283 2649 2373 2668 2756 2349 2195 2197 2522 2317 2071 2317 2374 2523 2580 2496 2453 2083 2613 2468 2782 2714 2483 
2412 2671 2423 2364 2532 2427 2240 2216 2069 2573 2580 2306 2073 2496 2353 2456 2366 2285 2593 2609 2350 2829 2247 2510 2393 2796 2337 2562 2628 2265 2336 2534 2377 2292 2380 2243 2479 2621 2324 2456 2807 2180 2538 2381 2229 2604 2835 2611 2099 2387 2592 2719 2481 2578 2690 2657 2245 2649 2440 2561 1946 2557 2359 2446 2567 2439 2464 2518 2819 2610 2421 2661 2364 2662 2570 2203 2540 2540 2375 2688 2482 2786 2875 2475 2146 2514 2619 2673 2143 2518 2535 2414 2707 2493 2439 2218 2640 2415 2738 2802 2551 
2588 2648 2289 2299 2597 2523 2267 2339 2279 2184 2424 2196 2107 2521 2278 2601 2261 2279 2372 2444 2230 2708 2373 2397 2459 2619 2335 2659 2530 2441 2307 2453 2408 2336 2449 2221 2467 2748 2058 2338 3007 2176 2620 2214 2427 2492 2648 2435 2244 2370 2516 2613 2457 2375 2669 2467 2300 2737 2518 2407 2231 2540 2367 2588 2302 2473 2540 2435 2485 2427 2336 2621 2424 2435 2545 2355 2583 2575 2209 2436 2508 2782 2982 2383 2274 2330 2473 2433 2169 2240 2675 2441 2615 2680 2503 2269 2588 2271 2738 2627 2340 
2540 2481 2351 2357 2536 2296 2277 2145 2042 2271 2491 2366 1998 2396 2268 2355 2355 2296 2225 2493 2130 2548 2285 2432 2530 2653 2496 2415 2348 2261 2132 2378 2242 2289 2325 2216 2301 2477 2154 2279 2711 2036 2575 2291 2477 2477 2529 2436 2069 2265 2583 2577 2401 2481 2563 2384 2403 2492 2507 2429 2033 2512 2357 2345 2379 2134 2566 2286 2498 2289 2426 2598 2399 2565 2543 2182 2534 2601 2350 2314 2385 2490 2737 2213 2149 2206 2511 2582 2200 2402 2672 2395 2652 2504 2238 2177 2533 2354 2776 2583 2258 
2484 2590 2291 2214 2442 2414 2142 2264 2131 2383 2389 2285 2152 2347 2239 2285 2307 2253 2442 2350 2281 2666 2246 2520 2358 2594 2311 2279 2465 2357 2400 2630 2314 2338 2308 2175 2307 2875 2063 2268 2994 2157 2608 2284 2400 2400 2501 2460 2303 2256 2422 2384 2588 2498 2589 2485 2221 2657 2311 2463 2041 2594 2315 2410 2412 2478 2369 2386 2445 2551 2321 2489 2210 2288 2596 2216 2504 2417 2371 2487 2373 2738 2731 2225 1945 2360 2380 2529 2230 2205 2575 2354 2590 2401 2462 2210 2436 2350 2752 2574 2290 
2499 2506 2285 2209 2425 2333 2554 2119 2035 2352 2299 2309 2011 2620 2280 2292 2164 2288 2441 2340 2303 2543 2293 2480 2436 2638 2313 2437 2463 2352 2279 2743 2480 2180 2380 2142 2434 2531 2180 2324 2880 2095 2646 2004 2401 2305 2666 2536 2174 2040 2659 2545 2373 2385 2461 2590 2446 2671 2461 2207 2198 2344 2373 2433 2280 2292 2453 2480 2446 2329 2394 2449 2527 2592 2351 2180 2376 2647 2321 2176 2596 2547 2709 2244 2064 2324 2472 2446 2063 2254 2664 2388 2669 2505 2425 2250 2462 2341 2824 2313 2406 
2306 2244 2037 2102 2160 1903 1960 1915 1799 2022 2120 2121 1925 2306 2153 2340 2177 1973 2253 2259 2130 2209 1980 2301 2295 2343 2289 2081 2258 2066 2087 2076 1994 2015 2130 1966 1996 2463 2035 2204 2677 2115 2344 2075 2162 2320 2185 2254 1847 2006 2388 2335 2167 2341 2428 2233 2192 2248 2275 2320 1905 2282 2099 2250 2075 2225 2213 2184 2181 2251 2299 2340 2064 2278 2227 2007 2212 2244 2157 2404 2163 2232 2414 2191 1729 2108 2271 2375 2039 2202 2232 2139 2416 1978 2103 1784 2424 2214 2492 2322 2132 
2399 2170 2317 2203 2288 2009 2214 2234 2027 2050 2301 2157 2010 2318 2138 2230 2316 2143 2201 2440 2057 2354 2070 2361 2357 2545 2421 2265 2193 2259 2145 2167 2111 2170 2025 2095 2133 2316 2294 2212 2459 2146 2240 2142 2335 2311 2616 2314 1978 2065 2321 2442 2239 2404 2521 2146 2135 2392 2349 2186 1891 2442 2214 2296 2249 2098 2463 2092 2427 2234 2359 2583 2038 2155 2367 2216 2380 2391 2192 2342 2135 2467 2601 2163 1920 2195 2371 2592 2216 2238 2468 2210 2575 2376 2221 2027 2448 2117 2575 2407 2107 
2577 2736 2256 2284 2513 2476 2241 2527 2410 2457 2670 2192 2223 2599 2456 2580 2614 2570 2451 2587 2338 2717 2407 2348 2653 2840 2411 2743 2655 2256 2580 2607 2531 2411 2578 2225 2590 2709 2363 2420 2911 2267 2605 2371 2521 2661 2749 2529 2345 2502 2539 2703 2489 2493 2729 2479 2493 2780 2594 2573 2163 2682 2558 2545 2347 2370 2727 2341 2977 2560 2484 2780 2307 2625 2621 2242 2754 2666 2483 2459 2511 2829 2786 2349 2364 2381 2663 2589 2277 2545 2728 2819 2668 2486 2465 2408 2789 2261 2728 2635 2370 
2525 2568 2549 2344 2586 2286 2253 2191 2016 2163 2359 2401 2040 2494 2278 2540 2215 2196 2607 2537 2192 2887 2467 2507 2551 2640 2310 2652 2539 2314 2407 2664 2509 2005 2459 2294 2457 2737 2293 2483 2765 2227 2500 2350 2449 2670 2827 2605 2173 2418 2416 2539 2284 2537 2421 2435 2268 2763 2398 2628 2155 2618 2538 2546 2340 2443 2505 2506 2672 2365 2359 2640 2262 2475 2572 2234 2535 2395 2348 2568 2448 2644 2894 2458 2067 2371 2424 2655 2325 2453 2748 2378 2640 2584 2447 2260 2847 2379 2660 2606 2422 
2478 2473 2104 2172 2374 2006 2072 1977 1856 1925 2162 2151 1988 2301 2217 2298 2145 2145 2454 2267 1952 2411 1969 2168 2209 2447 2229 2357 2341 2220 2341 2445 2135 2008 2161 1916 2150 2383 2104 2240 2496 2125 2443 1984 2248 2339 2366 2363 1940 2070 2491 2342 2211 2523 2455 2240 2070 2366 2207 2335 2164 2430 2281 2333 2041 2073 2226 2119 2333 2250 2207 2447 2105 2125 2312 1920 2320 2330 2228 2264 2119 2281 2493 2284 2035 2106 2345 2401 2128 2108 2407 2349 2374 2254 2304 2064 2489 2176 2348 2365 2285 
2561 2793 2474 2260 2714 2642 2441 2345 2397 2591 2633 2634 2231 2697 2381 2612 2607 2379 2663 2585 2196 3046 2238 2482 2580 2864 2440 2864 2785 2592 2490 2687 2399 2541 2435 2255 2731 2716 2355 2454 3042 2313 2725 2251 2661 2509 2876 2736 2357 2414 2716 2818 2690 2788 2726 2542 2622 2728 2635 2606 2233 2759 2650 2741 2608 2527 2816 2521 2819 2715 2612 2724 2581 2361 2762 2278 2653 2802 2417 2700 2701 2717 2971 2440 2236 2506 2796 2664 2360 2535 2822 2691 2866 2772 2587 2456 2811 2586 2875 2716 2615 
2367 2448 2230 2265 2404 1958 2192 1823 1944 2144 2168 2059 1913 2468 2084 2410 2068 2115 2401 2215 2132 2410 2162 2458 2250 2527 2300 2187 2289 2215 2269 2183 2131 2164 2259 2147 2102 2642 2111 2479 2683 1915 2424 2201 2194 2305 2529 2384 1984 2132 2323 2333 2406 2441 2475 2395 2195 2494 2321 2144 1864 2148 2213 2074 2104 2377 2326 2197 2125 2013 2199 2427 2081 2438 2618 2001 2363 2235 2237 2387 2135 2565 2620 2157 2018 2203 2260 2384 2027 2210 2217 2193 2507 2283 2156 2111 2366 2078 2662 2534 2154 
2516 2603 2194 2398 2577 2312 2174 2193 2130 2164 2560 2121 2100 2474 2355 2564 2279 2397 2488 2501 2221 2539 2176 2383 2540 2623 2271 2428 2501 2284 2311 2435 2162 2198 2525 2078 2439 2780 1966 2454 2845 2081 2550 2052 2238 2481 2430 2468 2153 2269 2402 2531 2492 2341 2560 2422 2275 2700 2360 2619 2265 2457 2468 2374 2259 2395 2479 2312 2494 2306 2355 2624 2294 2550 2333 2149 2469 2359 2320 2556 2335 2703 2822 2448 2200 2275 2454 2328 2036 2213 2444 2311 2681 2343 2349 2235 2460 2059 2742 2586 2400 
2699 2774 2408 2488 2771 2403 2364 2500 2175 2419 2591 2373 2149 2549 2326 2741 2360 2612 2686 2610 2568 2833 2477 2497 2754 2871 2536 2789 2715 2525 2525 2710 2608 2512 2596 2420 2562 2950 2324 2448 3244 2194 2813 2487 2667 2688 2823 2806 2446 2588 2647 2665 2540 2811 2777 2739 2496 2883 2564 2614 2358 2549 2751 2757 2489 2579 2603 2706 2794 2420 2700 2730 2515 2607 2733 2411 2606 2535 2579 2805 2700 2798 3004 2427 2250 2492 2749 2611 2281 2548 2820 2698 2862 2779 2570 2363 2817 2687 3013 2786 2784 
2303 2371 2056 1911 2361 2185 2028 2155 2118 2045 2138 2157 2143 2241 2159 2388 2386 2186 2262 2164 1871 2389 2099 2095 2365 2491 2279 2435 2478 2229 2375 2585 2149 2159 2197 2120 2351 2459 2042 2217 2572 1988 2366 2078 2279 2127 2371 2393 2038 2092 2230 2301 2168 2377 2496 2185 2244 2475 2322 2149 1903 2374 2267 2351 2019 2265 2295 2087 2388 2203 2201 2441 1973 2155 2426 1989 2339 2352 2228 2234 2214 2436 2529 2045 1841 2154 2361 2303 1958 2217 2424 2170 2435 2189 2335 2198 2396 2204 2457 2220 2156 
2428 2656 2222 2245 2448 2193 2012 2187 2104 2211 2193 2010 1847 2411 2126 2222 1968 2316 2160 1998 1990 2386 2068 2183 2214 2418 2085 2255 2150 2079 2198 2269 2271 2097 2205 1921 2391 2504 1927 2303 2604 1943 2457 2081 2196 2378 2355 2408 1969 1931 2414 2299 2319 2175 2373 2337 2188 2293 2302 2291 2016 2115 2351 2141 2272 2160 2381 2288 2285 2244 2312 2263 2376 2314 2188 2129 2439 2236 2128 2267 2297 2517 2614 2136 1974 2225 2185 2321 1786 2299 2461 2263 2334 2341 2134 2138 2359 2170 2537 2318 2174 
2567 2671 2426 2516 2606 2244 2336 2157 2113 2285 2382 2241 1852 2532 2272 2405 2247 2331 2395 2440 2183 2485 2125 2517 2410 2780 2341 2432 2551 2387 2231 2428 2009 2317 2284 2161 2252 2564 2027 2275 2702 2166 2656 2088 2212 2686 2607 2475 2146 2072 2582 2670 2341 2431 2677 2449 2127 2457 2303 2414 2138 2282 2334 2493 2346 2115 2466 2355 2457 2266 2599 2553 2299 2567 2629 2301 2183 2549 2431 2292 2318 2609 2831 2352 2291 2128 2539 2477 2197 2410 2621 2377 2478 2448 2373 2212 2586 2469 2578 2541 2365 
2062 1974 2052 1786 2049 1929 1803 1853 1756 1848 1987 1936 1674 2056 1994 2111 2124 1879 2073 2017 1789 2208 1893 2174 2042 2078 1973 2072 1990 2073 1935 2118 1834 1729 1916 1813 1849 2062 1897 1937 2360 1809 2253 1948 1769 2123 2268 2065 1936 1727 1992 2246 1760 1985 2078 1896 2013 2144 2054 2108 1654 2034 1950 2138 1955 1919 1923 1939 2105 2151 2058 2141 1819 2223 1984 1711 1928 2061 1848 2215 1865 2088 2183 1785 1776 1854 1981 2110 1634 1939 2022 2030 2192 1922 2026 1808 2261 1902 2298 2292 1896 
2287 2187 2056 2011 2157 2164 2130 2022 1921 2365 2294 1976 1865 2290 2005 2148 2086 2182 2253 2238 2253 2449 1991 2133 2311 2464 2133 2177 2326 2069 2143 2518 2052 2061 2336 2080 2040 2502 2107 2218 2775 2157 2412 2129 2265 2236 2493 2152 2090 1838 2303 2259 2137 2121 2291 2339 2164 2316 2234 2234 1848 2307 2345 2140 2185 2356 2169 2391 2311 2085 2305 2260 2160 2309 2241 1889 2346 2270 2297 2236 2464 2434 2511 2122 1863 2223 2209 2218 2012 2261 2421 2061 2373 1949 2214 1953 2476 2216 2660 2236 2167 
2298 2137 2144 2184 2221 2230 2173 2014 1979 2088 2263 2204 1916 2223 2046 2143 2093 1879 2085 2203 2156 2378 2169 2064 2286 2568 2311 2235 2345 2096 2303 2435 2145 2121 2149 2099 2227 2442 1990 2146 2561 1827 2262 2011 2199 2253 2382 2153 1963 2121 2101 2334 2227 2445 2520 2210 2168 2538 2105 2220 2108 2504 2135 2367 1972 2096 2163 1954 2417 2081 2230 2366 2059 2141 2349 2004 2364 2312 2208 2125 2144 2389 2644 2033 1879 2260 2427 2250 2041 2081 2420 2084 2564 2344 2176 2019 2409 2097 2509 2325 2176 
2215 2513 2196 2237 2354 2285 2059 2085 2102 2243 2357 2068 1921 2469 2140 2366 2343 2211 2429 2273 2058 2614 2149 2514 2366 2594 2223 2265 2276 2246 2251 2329 2221 2093 2275 2034 2164 2517 2281 2323 2533 2039 2513 2322 2143 2539 2415 2381 2030 2097 2344 2604 2184 2475 2590 2201 2343 2448 2371 2393 1790 2548 2331 2287 2243 2231 2421 2178 2376 2312 2345 2563 2092 2420 2500 2038 2536 2395 2142 2457 2162 2560 2561 2238 1964 2100 2279 2545 2040 2278 2309 2358 2488 2203 2122 2318 2603 2010 2490 2657 2174 
2279 2352 2234 2136 2490 2064 1890 2018 1854 2116 2280 2308 2089 2169 2112 2375 2208 2189 2378 2261 2247 2406 2114 2255 2253 2487 2297 2285 2399 2044 2308 2365 2325 2057 2209 1985 2198 2359 2103 2186 2755 2070 2541 2230 2071 2489 2520 2111 2073 1978 2312 2317 2447 2327 2380 2466 2030 2324 2328 2420 2013 2388 2343 2272 2066 2344 2275 2328 2530 2296 2199 2426 2319 2293 2358 2036 2330 2422 2308 2432 2357 2546 2625 2148 1872 2382 2482 2445 2023 2380 2507 2190 2365 2272 2314 1872 2495 2359 2758 2410 2219 
2373 2464 2378 2193 2474 2315 2109 2135 2052 2212 2152 2281 1868 2328 2272 2414 2324 2151 2247 2373 2090 2653 2096 2376 2304 2713 2184 2378 2447 1995 2253 2386 2018 2215 2324 2140 2227 2467 2119 2210 2806 2083 2545 2100 2290 2250 2382 2335 2236 2283 2251 2584 2375 2299 2504 2207 2321 2613 2449 2506 2093 2450 2364 2353 2266 2254 2481 2305 2520 2361 2354 2420 2163 2450 2276 2015 2176 2349 2216 2308 2592 2485 2676 2202 2160 2209 2285 2392 2191 2389 2707 2413 2446 2352 2094 2110 2532 2332 2769 2449 2269 
2573 2700 2355 2390 2553 2210 2184 2178 2137 2291 2345 2227 2133 2494 2402 2533 2463 2246 2643 2666 2255 2493 2109 2392 2366 2626 2509 2471 2678 2414 2514 2501 2474 2281 2302 2247 2363 2666 2321 2489 2931 2361 2556 2437 2324 2460 2854 2535 2267 2331 2637 2524 2532 2658 2801 2524 2424 2450 2384 2560 2028 2491 2285 2470 2257 2362 2451 2404 2417 2436 2520 2663 2287 2523 2718 2218 2364 2594 2436 2592 2348 2596 2849 2422 1968 2312 2381 2533 2181 2372 2464 2493 2598 2549 2381 2404 2684 2486 2837 2668 2569 
2593 2453 2316 2190 2325 2277 2386 2184 2107 2340 2223 2246 2001 2404 2285 2411 2164 2247 2310 2306 2090 2491 2319 2435 2318 2662 2272 2517 2551 2434 2070 2471 2078 2041 2320 2239 2229 2464 2077 2253 2705 2010 2367 2131 2295 2295 2590 2472 2047 2080 2660 2504 2302 2305 2520 2363 2257 2542 2281 2470 1869 2460 2308 2328 2367 2368 2284 2462 2309 2336 2387 2600 2303 2310 2455 2206 2514 2443 2491 2273 2393 2494 2616 2313 2035 2283 2288 2472 2083 2445 2600 2077 2569 2306 2339 2052 2399 2368 2738 2459 2402 
2445 2414 2313 2098 2207 2154 1888 2037 1867 2069 2269 2150 1978 2273 2000 2303 1983 2229 2365 2357 2045 2290 1921 2148 2150 2270 2302 2304 2361 2159 2157 2270 2027 2103 2357 1975 2306 2399 1988 2234 2563 2011 2455 2054 2153 2312 2477 2309 2000 1886 2454 2306 2231 2299 2339 2210 2359 2221 2177 2426 2030 2149 2196 2340 2081 2187 2265 2142 2434 2198 2151 2525 2251 2239 2301 1907 2491 2287 2117 2300 2137 2382 2562 2164 1934 2116 2229 2215 2032 2084 2485 2215 2353 2305 2190 2114 2485 2283 2533 2414 2366 
2765 2780 2341 2422 2604 2301 2402 2448 2411 2280 2526 2162 2231 2510 2387 2607 2522 2460 2597 2563 2303 2685 2335 2471 2532 2793 2592 2490 2636 2416 2429 2699 2421 2515 2436 2182 2422 2846 2324 2512 2921 2266 2750 2239 2399 2502 2635 2741 2342 2362 2494 2539 2508 2582 2875 2509 2334 2698 2613 2458 2283 2424 2498 2523 2449 2300 2534 2446 2615 2419 2417 2812 2228 2666 2503 2197 2428 2601 2550 2428 2479 2706 2686 2555 2220 2258 2430 2602 2267 2333 2551 2600 2662 2525 2389 2334 2697 2502 2800 2488 2427 
2314 2416 2243 2086 2514 2225 2177 1980 2146 2188 2333 2154 2119 2250 2160 2275 2225 2055 2479 2428 2200 2492 2072 2212 2440 2508 2289 2273 2580 2256 2233 2354 2290 2277 2306 2097 2211 2611 1909 2217 2756 2198 2365 2144 2118 2216 2562 2465 2197 2175 2240 2278 2224 2506 2575 2397 2157 2376 2141 2357 1933 2505 2253 2459 2203 2502 2315 2315 2393 2361 2169 2448 2115 2332 2407 2015 2492 2263 2267 2652 2259 2515 2912 2265 1968 2280 2325 2086 2027 2182 2360 2128 2545 2310 2265 2048 2588 2164 2764 2457 2291 
