﻿E:\Microsoft Visual Studio\MSBuild\Microsoft\VC\v160\Microsoft.CppBuild.targets(519,5): warning MSB8028: The intermediate directory (Debug\) contains files shared from another project (Paralelno Programiranje Projekat1.vcxproj).  This can lead to incorrect clean and rebuild behavior.
  main.cpp
E:\VisualStudio Projects\PP projekat\Serial Solution\main.cpp(46,20): warning C4018: '<': signed/unsigned mismatch
E:\VisualStudio Projects\PP projekat\Serial Solution\main.cpp(47,21): warning C4018: '<': signed/unsigned mismatch
  Paralelno Programiranje Projekat1.vcxproj -> E:\VisualStudio Projects\PP projekat\Serial Solution\Debug\Serial Solution.exe
