^E:\VISUALSTUDIO PROJECTS\PARALELNO PROGRAMIRANJE PROJEKAT1\FILEHANDLER.CPP
/c /I"E:\VCPKG\VCPKG\SCRIPTS\BUILDSYSTEMS\MSBUILD\..\..\..\INSTALLED\X86-WINDOWS\INCLUDE" /ZI /JMC /nologo /W3 /WX- /diagnostics:column /sdl /Od /Oy- /D WIN32 /D _DEBUG /D _CONSOLE /D _UNICODE /D UNICODE /Gm- /EHsc /RTC1 /MDd /GS /permissive- /Zc:wchar_t /Zc:forScope /Zc:inline /Fo"DEBUG\\" /Fd"DEBUG\VC142.PDB" /Gd /TP /analyze- /FC E:\VISUALSTUDIO PROJECTS\PARALELNO PROGRAMIRANJE PROJEKAT1\FILEHANDLER.CPP
^E:\VISUALSTUDIO PROJECTS\PARALELNO PROGRAMIRANJE PROJEKAT1\MAPPER.CPP
/c /I"E:\VCPKG\VCPKG\SCRIPTS\BUILDSYSTEMS\MSBUILD\..\..\..\INSTALLED\X86-WINDOWS\INCLUDE" /ZI /JMC /nologo /W3 /WX- /diagnostics:column /sdl /Od /Oy- /D WIN32 /D _DEBUG /D _CONSOLE /D _UNICODE /D UNICODE /Gm- /EHsc /RTC1 /MDd /GS /permissive- /Zc:wchar_t /Zc:forScope /Zc:inline /Fo"DEBUG\\" /Fd"DEBUG\VC142.PDB" /Gd /TP /analyze- /FC E:\VISUALSTUDIO PROJECTS\PARALELNO PROGRAMIRANJE PROJEKAT1\MAPPER.CPP
^E:\VISUALSTUDIO PROJECTS\PARALELNO PROGRAMIRANJE PROJEKAT1\MAIN.CPP
/c /I"E:\VCPKG\VCPKG\SCRIPTS\BUILDSYSTEMS\MSBUILD\..\..\..\INSTALLED\X86-WINDOWS\INCLUDE" /ZI /JMC /nologo /W3 /WX- /diagnostics:column /sdl /Od /Oy- /D WIN32 /D _DEBUG /D _CONSOLE /D _UNICODE /D UNICODE /Gm- /EHsc /RTC1 /MDd /GS /permissive- /Zc:wchar_t /Zc:forScope /Zc:inline /Fo"DEBUG\\" /Fd"DEBUG\VC142.PDB" /Gd /TP /analyze- /FC E:\VISUALSTUDIO PROJECTS\PARALELNO PROGRAMIRANJE PROJEKAT1\MAIN.CPP
