^E:\VISUALSTUDIO PROJECTS\PARALELNO PROGRAMIRANJE PROJEKAT1\FILEHANDLER.CPP
E:\MICROSOFT VISUAL STUDIO\VC\TOOLS\MSVC\14.28.29910\INCLUDE\FSTREAM
E:\MICROSOFT VISUAL STUDIO\VC\TOOLS\MSVC\14.28.29910\INCLUDE\YVALS_CORE.H
E:\MICROSOFT VISUAL STUDIO\VC\TOOLS\MSVC\14.28.29910\INCLUDE\VCRUNTIME.H
E:\MICROSOFT VISUAL STUDIO\VC\TOOLS\MSVC\14.28.29910\INCLUDE\SAL.H
E:\MICROSOFT VISUAL STUDIO\VC\TOOLS\MSVC\14.28.29910\INCLUDE\CONCURRENCYSAL.H
E:\MICROSOFT VISUAL STUDIO\VC\TOOLS\MSVC\14.28.29910\INCLUDE\VADEFS.H
E:\MICROSOFT VISUAL STUDIO\VC\TOOLS\MSVC\14.28.29910\INCLUDE\XKEYCHECK.H
E:\MICROSOFT VISUAL STUDIO\VC\TOOLS\MSVC\14.28.29910\INCLUDE\ISTREAM
E:\MICROSOFT VISUAL STUDIO\VC\TOOLS\MSVC\14.28.29910\INCLUDE\OSTREAM
E:\MICROSOFT VISUAL STUDIO\VC\TOOLS\MSVC\14.28.29910\INCLUDE\IOS
E:\MICROSOFT VISUAL STUDIO\VC\TOOLS\MSVC\14.28.29910\INCLUDE\XLOCNUM
E:\MICROSOFT VISUAL STUDIO\VC\TOOLS\MSVC\14.28.29910\INCLUDE\CLIMITS
E:\MICROSOFT VISUAL STUDIO\VC\TOOLS\MSVC\14.28.29910\INCLUDE\LIMITS.H
E:\MICROSOFT VISUAL STUDIO\VC\TOOLS\MSVC\14.28.29910\INCLUDE\CMATH
E:\MICROSOFT VISUAL STUDIO\VC\TOOLS\MSVC\14.28.29910\INCLUDE\YVALS.H
E:\WINDOWS KITS\10\INCLUDE\10.0.19041.0\UCRT\CRTDBG.H
E:\WINDOWS KITS\10\INCLUDE\10.0.19041.0\UCRT\CORECRT.H
E:\MICROSOFT VISUAL STUDIO\VC\TOOLS\MSVC\14.28.29910\INCLUDE\VCRUNTIME_NEW_DEBUG.H
E:\MICROSOFT VISUAL STUDIO\VC\TOOLS\MSVC\14.28.29910\INCLUDE\VCRUNTIME_NEW.H
E:\MICROSOFT VISUAL STUDIO\VC\TOOLS\MSVC\14.28.29910\INCLUDE\CRTDEFS.H
E:\MICROSOFT VISUAL STUDIO\VC\TOOLS\MSVC\14.28.29910\INCLUDE\USE_ANSI.H
E:\MICROSOFT VISUAL STUDIO\VC\TOOLS\MSVC\14.28.29910\INCLUDE\CSTDLIB
E:\WINDOWS KITS\10\INCLUDE\10.0.19041.0\UCRT\MATH.H
E:\WINDOWS KITS\10\INCLUDE\10.0.19041.0\UCRT\CORECRT_MATH.H
E:\WINDOWS KITS\10\INCLUDE\10.0.19041.0\UCRT\STDLIB.H
E:\WINDOWS KITS\10\INCLUDE\10.0.19041.0\UCRT\CORECRT_MALLOC.H
E:\WINDOWS KITS\10\INCLUDE\10.0.19041.0\UCRT\CORECRT_SEARCH.H
E:\WINDOWS KITS\10\INCLUDE\10.0.19041.0\UCRT\STDDEF.H
E:\WINDOWS KITS\10\INCLUDE\10.0.19041.0\UCRT\CORECRT_WSTDLIB.H
E:\MICROSOFT VISUAL STUDIO\VC\TOOLS\MSVC\14.28.29910\INCLUDE\XTR1COMMON
E:\MICROSOFT VISUAL STUDIO\VC\TOOLS\MSVC\14.28.29910\INCLUDE\INTRIN0.H
E:\MICROSOFT VISUAL STUDIO\VC\TOOLS\MSVC\14.28.29910\INCLUDE\CSTDIO
E:\WINDOWS KITS\10\INCLUDE\10.0.19041.0\UCRT\STDIO.H
E:\WINDOWS KITS\10\INCLUDE\10.0.19041.0\UCRT\CORECRT_WSTDIO.H
E:\WINDOWS KITS\10\INCLUDE\10.0.19041.0\UCRT\CORECRT_STDIO_CONFIG.H
E:\MICROSOFT VISUAL STUDIO\VC\TOOLS\MSVC\14.28.29910\INCLUDE\ITERATOR
E:\MICROSOFT VISUAL STUDIO\VC\TOOLS\MSVC\14.28.29910\INCLUDE\IOSFWD
E:\MICROSOFT VISUAL STUDIO\VC\TOOLS\MSVC\14.28.29910\INCLUDE\CSTRING
E:\WINDOWS KITS\10\INCLUDE\10.0.19041.0\UCRT\STRING.H
E:\WINDOWS KITS\10\INCLUDE\10.0.19041.0\UCRT\CORECRT_MEMORY.H
E:\WINDOWS KITS\10\INCLUDE\10.0.19041.0\UCRT\CORECRT_MEMCPY_S.H
E:\WINDOWS KITS\10\INCLUDE\10.0.19041.0\UCRT\ERRNO.H
E:\MICROSOFT VISUAL STUDIO\VC\TOOLS\MSVC\14.28.29910\INCLUDE\VCRUNTIME_STRING.H
E:\WINDOWS KITS\10\INCLUDE\10.0.19041.0\UCRT\CORECRT_WSTRING.H
E:\MICROSOFT VISUAL STUDIO\VC\TOOLS\MSVC\14.28.29910\INCLUDE\CWCHAR
E:\WINDOWS KITS\10\INCLUDE\10.0.19041.0\UCRT\WCHAR.H
E:\WINDOWS KITS\10\INCLUDE\10.0.19041.0\UCRT\CORECRT_WCONIO.H
E:\WINDOWS KITS\10\INCLUDE\10.0.19041.0\UCRT\CORECRT_WCTYPE.H
E:\WINDOWS KITS\10\INCLUDE\10.0.19041.0\UCRT\CORECRT_WDIRECT.H
E:\WINDOWS KITS\10\INCLUDE\10.0.19041.0\UCRT\CORECRT_WIO.H
E:\WINDOWS KITS\10\INCLUDE\10.0.19041.0\UCRT\CORECRT_SHARE.H
E:\WINDOWS KITS\10\INCLUDE\10.0.19041.0\UCRT\CORECRT_WPROCESS.H
E:\WINDOWS KITS\10\INCLUDE\10.0.19041.0\UCRT\CORECRT_WTIME.H
E:\WINDOWS KITS\10\INCLUDE\10.0.19041.0\UCRT\SYS\STAT.H
E:\WINDOWS KITS\10\INCLUDE\10.0.19041.0\UCRT\SYS\TYPES.H
E:\MICROSOFT VISUAL STUDIO\VC\TOOLS\MSVC\14.28.29910\INCLUDE\XSTDDEF
E:\MICROSOFT VISUAL STUDIO\VC\TOOLS\MSVC\14.28.29910\INCLUDE\CSTDDEF
E:\MICROSOFT VISUAL STUDIO\VC\TOOLS\MSVC\14.28.29910\INCLUDE\INITIALIZER_LIST
E:\MICROSOFT VISUAL STUDIO\VC\TOOLS\MSVC\14.28.29910\INCLUDE\XUTILITY
E:\MICROSOFT VISUAL STUDIO\VC\TOOLS\MSVC\14.28.29910\INCLUDE\UTILITY
E:\MICROSOFT VISUAL STUDIO\VC\TOOLS\MSVC\14.28.29910\INCLUDE\TYPE_TRAITS
E:\MICROSOFT VISUAL STUDIO\VC\TOOLS\MSVC\14.28.29910\INCLUDE\CSTDINT
E:\MICROSOFT VISUAL STUDIO\VC\TOOLS\MSVC\14.28.29910\INCLUDE\STDINT.H
E:\MICROSOFT VISUAL STUDIO\VC\TOOLS\MSVC\14.28.29910\INCLUDE\STREAMBUF
E:\MICROSOFT VISUAL STUDIO\VC\TOOLS\MSVC\14.28.29910\INCLUDE\XIOSBASE
E:\WINDOWS KITS\10\INCLUDE\10.0.19041.0\UCRT\SHARE.H
E:\MICROSOFT VISUAL STUDIO\VC\TOOLS\MSVC\14.28.29910\INCLUDE\SYSTEM_ERROR
E:\MICROSOFT VISUAL STUDIO\VC\TOOLS\MSVC\14.28.29910\INCLUDE\__MSVC_SYSTEM_ERROR_ABI.HPP
E:\MICROSOFT VISUAL STUDIO\VC\TOOLS\MSVC\14.28.29910\INCLUDE\CERRNO
E:\MICROSOFT VISUAL STUDIO\VC\TOOLS\MSVC\14.28.29910\INCLUDE\STDEXCEPT
E:\MICROSOFT VISUAL STUDIO\VC\TOOLS\MSVC\14.28.29910\INCLUDE\EXCEPTION
E:\WINDOWS KITS\10\INCLUDE\10.0.19041.0\UCRT\MALLOC.H
E:\MICROSOFT VISUAL STUDIO\VC\TOOLS\MSVC\14.28.29910\INCLUDE\VCRUNTIME_EXCEPTION.H
E:\MICROSOFT VISUAL STUDIO\VC\TOOLS\MSVC\14.28.29910\INCLUDE\EH.H
E:\WINDOWS KITS\10\INCLUDE\10.0.19041.0\UCRT\CORECRT_TERMINATE.H
E:\MICROSOFT VISUAL STUDIO\VC\TOOLS\MSVC\14.28.29910\INCLUDE\XSTRING
E:\MICROSOFT VISUAL STUDIO\VC\TOOLS\MSVC\14.28.29910\INCLUDE\XMEMORY
E:\MICROSOFT VISUAL STUDIO\VC\TOOLS\MSVC\14.28.29910\INCLUDE\LIMITS
E:\MICROSOFT VISUAL STUDIO\VC\TOOLS\MSVC\14.28.29910\INCLUDE\CFLOAT
E:\WINDOWS KITS\10\INCLUDE\10.0.19041.0\UCRT\FLOAT.H
E:\MICROSOFT VISUAL STUDIO\VC\TOOLS\MSVC\14.28.29910\INCLUDE\ISA_AVAILABILITY.H
E:\MICROSOFT VISUAL STUDIO\VC\TOOLS\MSVC\14.28.29910\INCLUDE\NEW
E:\MICROSOFT VISUAL STUDIO\VC\TOOLS\MSVC\14.28.29910\INCLUDE\XATOMIC.H
E:\MICROSOFT VISUAL STUDIO\VC\TOOLS\MSVC\14.28.29910\INCLUDE\XCALL_ONCE.H
E:\MICROSOFT VISUAL STUDIO\VC\TOOLS\MSVC\14.28.29910\INCLUDE\XERRC.H
E:\MICROSOFT VISUAL STUDIO\VC\TOOLS\MSVC\14.28.29910\INCLUDE\ATOMIC
E:\MICROSOFT VISUAL STUDIO\VC\TOOLS\MSVC\14.28.29910\INCLUDE\XTHREADS.H
E:\MICROSOFT VISUAL STUDIO\VC\TOOLS\MSVC\14.28.29910\INCLUDE\XTIMEC.H
E:\MICROSOFT VISUAL STUDIO\VC\TOOLS\MSVC\14.28.29910\INCLUDE\CTIME
E:\WINDOWS KITS\10\INCLUDE\10.0.19041.0\UCRT\TIME.H
E:\MICROSOFT VISUAL STUDIO\VC\TOOLS\MSVC\14.28.29910\INCLUDE\XLOCALE
E:\MICROSOFT VISUAL STUDIO\VC\TOOLS\MSVC\14.28.29910\INCLUDE\MEMORY
E:\MICROSOFT VISUAL STUDIO\VC\TOOLS\MSVC\14.28.29910\INCLUDE\TYPEINFO
E:\MICROSOFT VISUAL STUDIO\VC\TOOLS\MSVC\14.28.29910\INCLUDE\VCRUNTIME_TYPEINFO.H
E:\MICROSOFT VISUAL STUDIO\VC\TOOLS\MSVC\14.28.29910\INCLUDE\XFACET
E:\MICROSOFT VISUAL STUDIO\VC\TOOLS\MSVC\14.28.29910\INCLUDE\XLOCINFO
E:\MICROSOFT VISUAL STUDIO\VC\TOOLS\MSVC\14.28.29910\INCLUDE\XLOCINFO.H
E:\MICROSOFT VISUAL STUDIO\VC\TOOLS\MSVC\14.28.29910\INCLUDE\CCTYPE
E:\WINDOWS KITS\10\INCLUDE\10.0.19041.0\UCRT\CTYPE.H
E:\MICROSOFT VISUAL STUDIO\VC\TOOLS\MSVC\14.28.29910\INCLUDE\CLOCALE
E:\WINDOWS KITS\10\INCLUDE\10.0.19041.0\UCRT\LOCALE.H
E:\VISUALSTUDIO PROJECTS\PARALELNO PROGRAMIRANJE PROJEKAT1\FILEHANDLER.H
E:\MICROSOFT VISUAL STUDIO\VC\TOOLS\MSVC\14.28.29910\INCLUDE\VECTOR
E:\MICROSOFT VISUAL STUDIO\VC\TOOLS\MSVC\14.28.29910\INCLUDE\STRING
E:\VISUALSTUDIO PROJECTS\PARALELNO PROGRAMIRANJE PROJEKAT1\MAPPER.H
^E:\VISUALSTUDIO PROJECTS\PARALELNO PROGRAMIRANJE PROJEKAT1\MAPPER.CPP
E:\VISUALSTUDIO PROJECTS\PARALELNO PROGRAMIRANJE PROJEKAT1\MAPPER.H
E:\MICROSOFT VISUAL STUDIO\VC\TOOLS\MSVC\14.28.29910\INCLUDE\VECTOR
E:\MICROSOFT VISUAL STUDIO\VC\TOOLS\MSVC\14.28.29910\INCLUDE\YVALS_CORE.H
E:\MICROSOFT VISUAL STUDIO\VC\TOOLS\MSVC\14.28.29910\INCLUDE\VCRUNTIME.H
E:\MICROSOFT VISUAL STUDIO\VC\TOOLS\MSVC\14.28.29910\INCLUDE\SAL.H
E:\MICROSOFT VISUAL STUDIO\VC\TOOLS\MSVC\14.28.29910\INCLUDE\CONCURRENCYSAL.H
E:\MICROSOFT VISUAL STUDIO\VC\TOOLS\MSVC\14.28.29910\INCLUDE\VADEFS.H
E:\MICROSOFT VISUAL STUDIO\VC\TOOLS\MSVC\14.28.29910\INCLUDE\XKEYCHECK.H
E:\MICROSOFT VISUAL STUDIO\VC\TOOLS\MSVC\14.28.29910\INCLUDE\XMEMORY
E:\MICROSOFT VISUAL STUDIO\VC\TOOLS\MSVC\14.28.29910\INCLUDE\CSTDINT
E:\MICROSOFT VISUAL STUDIO\VC\TOOLS\MSVC\14.28.29910\INCLUDE\STDINT.H
E:\MICROSOFT VISUAL STUDIO\VC\TOOLS\MSVC\14.28.29910\INCLUDE\CSTDLIB
E:\WINDOWS KITS\10\INCLUDE\10.0.19041.0\UCRT\MATH.H
E:\WINDOWS KITS\10\INCLUDE\10.0.19041.0\UCRT\CORECRT_MATH.H
E:\WINDOWS KITS\10\INCLUDE\10.0.19041.0\UCRT\CORECRT.H
E:\WINDOWS KITS\10\INCLUDE\10.0.19041.0\UCRT\STDLIB.H
E:\WINDOWS KITS\10\INCLUDE\10.0.19041.0\UCRT\CORECRT_MALLOC.H
E:\WINDOWS KITS\10\INCLUDE\10.0.19041.0\UCRT\CORECRT_SEARCH.H
E:\WINDOWS KITS\10\INCLUDE\10.0.19041.0\UCRT\STDDEF.H
E:\WINDOWS KITS\10\INCLUDE\10.0.19041.0\UCRT\CORECRT_WSTDLIB.H
E:\MICROSOFT VISUAL STUDIO\VC\TOOLS\MSVC\14.28.29910\INCLUDE\LIMITS.H
E:\MICROSOFT VISUAL STUDIO\VC\TOOLS\MSVC\14.28.29910\INCLUDE\LIMITS
E:\MICROSOFT VISUAL STUDIO\VC\TOOLS\MSVC\14.28.29910\INCLUDE\CFLOAT
E:\WINDOWS KITS\10\INCLUDE\10.0.19041.0\UCRT\FLOAT.H
E:\MICROSOFT VISUAL STUDIO\VC\TOOLS\MSVC\14.28.29910\INCLUDE\CLIMITS
E:\MICROSOFT VISUAL STUDIO\VC\TOOLS\MSVC\14.28.29910\INCLUDE\CWCHAR
E:\MICROSOFT VISUAL STUDIO\VC\TOOLS\MSVC\14.28.29910\INCLUDE\CSTDIO
E:\WINDOWS KITS\10\INCLUDE\10.0.19041.0\UCRT\STDIO.H
E:\WINDOWS KITS\10\INCLUDE\10.0.19041.0\UCRT\CORECRT_WSTDIO.H
E:\WINDOWS KITS\10\INCLUDE\10.0.19041.0\UCRT\CORECRT_STDIO_CONFIG.H
E:\WINDOWS KITS\10\INCLUDE\10.0.19041.0\UCRT\WCHAR.H
E:\WINDOWS KITS\10\INCLUDE\10.0.19041.0\UCRT\CORECRT_MEMCPY_S.H
E:\WINDOWS KITS\10\INCLUDE\10.0.19041.0\UCRT\ERRNO.H
E:\MICROSOFT VISUAL STUDIO\VC\TOOLS\MSVC\14.28.29910\INCLUDE\VCRUNTIME_STRING.H
E:\WINDOWS KITS\10\INCLUDE\10.0.19041.0\UCRT\CORECRT_WCONIO.H
E:\WINDOWS KITS\10\INCLUDE\10.0.19041.0\UCRT\CORECRT_WCTYPE.H
E:\WINDOWS KITS\10\INCLUDE\10.0.19041.0\UCRT\CORECRT_WDIRECT.H
E:\WINDOWS KITS\10\INCLUDE\10.0.19041.0\UCRT\CORECRT_WIO.H
E:\WINDOWS KITS\10\INCLUDE\10.0.19041.0\UCRT\CORECRT_SHARE.H
E:\WINDOWS KITS\10\INCLUDE\10.0.19041.0\UCRT\CORECRT_WPROCESS.H
E:\WINDOWS KITS\10\INCLUDE\10.0.19041.0\UCRT\CORECRT_WSTRING.H
E:\WINDOWS KITS\10\INCLUDE\10.0.19041.0\UCRT\CORECRT_WTIME.H
E:\WINDOWS KITS\10\INCLUDE\10.0.19041.0\UCRT\SYS\STAT.H
E:\WINDOWS KITS\10\INCLUDE\10.0.19041.0\UCRT\SYS\TYPES.H
E:\MICROSOFT VISUAL STUDIO\VC\TOOLS\MSVC\14.28.29910\INCLUDE\INTRIN0.H
E:\MICROSOFT VISUAL STUDIO\VC\TOOLS\MSVC\14.28.29910\INCLUDE\ISA_AVAILABILITY.H
E:\MICROSOFT VISUAL STUDIO\VC\TOOLS\MSVC\14.28.29910\INCLUDE\XSTDDEF
E:\MICROSOFT VISUAL STUDIO\VC\TOOLS\MSVC\14.28.29910\INCLUDE\CSTDDEF
E:\MICROSOFT VISUAL STUDIO\VC\TOOLS\MSVC\14.28.29910\INCLUDE\XTR1COMMON
E:\MICROSOFT VISUAL STUDIO\VC\TOOLS\MSVC\14.28.29910\INCLUDE\INITIALIZER_LIST
E:\MICROSOFT VISUAL STUDIO\VC\TOOLS\MSVC\14.28.29910\INCLUDE\NEW
E:\MICROSOFT VISUAL STUDIO\VC\TOOLS\MSVC\14.28.29910\INCLUDE\EXCEPTION
E:\MICROSOFT VISUAL STUDIO\VC\TOOLS\MSVC\14.28.29910\INCLUDE\YVALS.H
E:\WINDOWS KITS\10\INCLUDE\10.0.19041.0\UCRT\CRTDBG.H
E:\MICROSOFT VISUAL STUDIO\VC\TOOLS\MSVC\14.28.29910\INCLUDE\VCRUNTIME_NEW_DEBUG.H
E:\MICROSOFT VISUAL STUDIO\VC\TOOLS\MSVC\14.28.29910\INCLUDE\VCRUNTIME_NEW.H
E:\MICROSOFT VISUAL STUDIO\VC\TOOLS\MSVC\14.28.29910\INCLUDE\CRTDEFS.H
E:\MICROSOFT VISUAL STUDIO\VC\TOOLS\MSVC\14.28.29910\INCLUDE\USE_ANSI.H
E:\MICROSOFT VISUAL STUDIO\VC\TOOLS\MSVC\14.28.29910\INCLUDE\TYPE_TRAITS
E:\WINDOWS KITS\10\INCLUDE\10.0.19041.0\UCRT\MALLOC.H
E:\MICROSOFT VISUAL STUDIO\VC\TOOLS\MSVC\14.28.29910\INCLUDE\VCRUNTIME_EXCEPTION.H
E:\MICROSOFT VISUAL STUDIO\VC\TOOLS\MSVC\14.28.29910\INCLUDE\EH.H
E:\WINDOWS KITS\10\INCLUDE\10.0.19041.0\UCRT\CORECRT_TERMINATE.H
E:\MICROSOFT VISUAL STUDIO\VC\TOOLS\MSVC\14.28.29910\INCLUDE\XATOMIC.H
E:\MICROSOFT VISUAL STUDIO\VC\TOOLS\MSVC\14.28.29910\INCLUDE\XUTILITY
E:\MICROSOFT VISUAL STUDIO\VC\TOOLS\MSVC\14.28.29910\INCLUDE\CSTRING
E:\WINDOWS KITS\10\INCLUDE\10.0.19041.0\UCRT\STRING.H
E:\WINDOWS KITS\10\INCLUDE\10.0.19041.0\UCRT\CORECRT_MEMORY.H
E:\MICROSOFT VISUAL STUDIO\VC\TOOLS\MSVC\14.28.29910\INCLUDE\UTILITY
E:\MICROSOFT VISUAL STUDIO\VC\TOOLS\MSVC\14.28.29910\INCLUDE\STRING
E:\MICROSOFT VISUAL STUDIO\VC\TOOLS\MSVC\14.28.29910\INCLUDE\XSTRING
E:\MICROSOFT VISUAL STUDIO\VC\TOOLS\MSVC\14.28.29910\INCLUDE\IOSFWD
E:\MICROSOFT VISUAL STUDIO\VC\TOOLS\MSVC\14.28.29910\INCLUDE\CCTYPE
E:\WINDOWS KITS\10\INCLUDE\10.0.19041.0\UCRT\CTYPE.H
^E:\VISUALSTUDIO PROJECTS\PARALELNO PROGRAMIRANJE PROJEKAT1\MAIN.CPP
C:\WINDOWS\GLOBALIZATION\SORTING\SORTDEFAULT.NLS
E:\MICROSOFT VISUAL STUDIO\VC\TOOLS\MSVC\14.28.29910\BIN\HOSTX86\X86\1033\CLUI.DLL
C:\WINDOWS\SYSTEM32\TZRES.DLL
E:\MICROSOFT VISUAL STUDIO\VC\TOOLS\MSVC\14.28.29910\INCLUDE\VECTOR
E:\MICROSOFT VISUAL STUDIO\VC\TOOLS\MSVC\14.28.29910\INCLUDE\YVALS_CORE.H
E:\MICROSOFT VISUAL STUDIO\VC\TOOLS\MSVC\14.28.29910\INCLUDE\VCRUNTIME.H
E:\MICROSOFT VISUAL STUDIO\VC\TOOLS\MSVC\14.28.29910\INCLUDE\SAL.H
E:\MICROSOFT VISUAL STUDIO\VC\TOOLS\MSVC\14.28.29910\INCLUDE\CONCURRENCYSAL.H
E:\MICROSOFT VISUAL STUDIO\VC\TOOLS\MSVC\14.28.29910\INCLUDE\VADEFS.H
E:\MICROSOFT VISUAL STUDIO\VC\TOOLS\MSVC\14.28.29910\INCLUDE\XKEYCHECK.H
E:\MICROSOFT VISUAL STUDIO\VC\TOOLS\MSVC\14.28.29910\INCLUDE\XMEMORY
E:\MICROSOFT VISUAL STUDIO\VC\TOOLS\MSVC\14.28.29910\INCLUDE\CSTDINT
E:\MICROSOFT VISUAL STUDIO\VC\TOOLS\MSVC\14.28.29910\INCLUDE\STDINT.H
E:\MICROSOFT VISUAL STUDIO\VC\TOOLS\MSVC\14.28.29910\INCLUDE\CSTDLIB
E:\WINDOWS KITS\10\INCLUDE\10.0.19041.0\UCRT\MATH.H
E:\WINDOWS KITS\10\INCLUDE\10.0.19041.0\UCRT\CORECRT_MATH.H
E:\WINDOWS KITS\10\INCLUDE\10.0.19041.0\UCRT\CORECRT.H
E:\WINDOWS KITS\10\INCLUDE\10.0.19041.0\UCRT\STDLIB.H
E:\WINDOWS KITS\10\INCLUDE\10.0.19041.0\UCRT\CORECRT_MALLOC.H
E:\WINDOWS KITS\10\INCLUDE\10.0.19041.0\UCRT\CORECRT_SEARCH.H
E:\WINDOWS KITS\10\INCLUDE\10.0.19041.0\UCRT\STDDEF.H
E:\WINDOWS KITS\10\INCLUDE\10.0.19041.0\UCRT\CORECRT_WSTDLIB.H
E:\MICROSOFT VISUAL STUDIO\VC\TOOLS\MSVC\14.28.29910\INCLUDE\LIMITS.H
E:\MICROSOFT VISUAL STUDIO\VC\TOOLS\MSVC\14.28.29910\INCLUDE\LIMITS
E:\MICROSOFT VISUAL STUDIO\VC\TOOLS\MSVC\14.28.29910\INCLUDE\CFLOAT
E:\WINDOWS KITS\10\INCLUDE\10.0.19041.0\UCRT\FLOAT.H
E:\MICROSOFT VISUAL STUDIO\VC\TOOLS\MSVC\14.28.29910\INCLUDE\CLIMITS
E:\MICROSOFT VISUAL STUDIO\VC\TOOLS\MSVC\14.28.29910\INCLUDE\CWCHAR
E:\MICROSOFT VISUAL STUDIO\VC\TOOLS\MSVC\14.28.29910\INCLUDE\CSTDIO
E:\WINDOWS KITS\10\INCLUDE\10.0.19041.0\UCRT\STDIO.H
E:\WINDOWS KITS\10\INCLUDE\10.0.19041.0\UCRT\CORECRT_WSTDIO.H
E:\WINDOWS KITS\10\INCLUDE\10.0.19041.0\UCRT\CORECRT_STDIO_CONFIG.H
E:\WINDOWS KITS\10\INCLUDE\10.0.19041.0\UCRT\WCHAR.H
E:\WINDOWS KITS\10\INCLUDE\10.0.19041.0\UCRT\CORECRT_MEMCPY_S.H
E:\WINDOWS KITS\10\INCLUDE\10.0.19041.0\UCRT\ERRNO.H
E:\MICROSOFT VISUAL STUDIO\VC\TOOLS\MSVC\14.28.29910\INCLUDE\VCRUNTIME_STRING.H
E:\WINDOWS KITS\10\INCLUDE\10.0.19041.0\UCRT\CORECRT_WCONIO.H
E:\WINDOWS KITS\10\INCLUDE\10.0.19041.0\UCRT\CORECRT_WCTYPE.H
E:\WINDOWS KITS\10\INCLUDE\10.0.19041.0\UCRT\CORECRT_WDIRECT.H
E:\WINDOWS KITS\10\INCLUDE\10.0.19041.0\UCRT\CORECRT_WIO.H
E:\WINDOWS KITS\10\INCLUDE\10.0.19041.0\UCRT\CORECRT_SHARE.H
E:\WINDOWS KITS\10\INCLUDE\10.0.19041.0\UCRT\CORECRT_WPROCESS.H
E:\WINDOWS KITS\10\INCLUDE\10.0.19041.0\UCRT\CORECRT_WSTRING.H
E:\WINDOWS KITS\10\INCLUDE\10.0.19041.0\UCRT\CORECRT_WTIME.H
E:\WINDOWS KITS\10\INCLUDE\10.0.19041.0\UCRT\SYS\STAT.H
E:\WINDOWS KITS\10\INCLUDE\10.0.19041.0\UCRT\SYS\TYPES.H
E:\MICROSOFT VISUAL STUDIO\VC\TOOLS\MSVC\14.28.29910\INCLUDE\INTRIN0.H
E:\MICROSOFT VISUAL STUDIO\VC\TOOLS\MSVC\14.28.29910\INCLUDE\ISA_AVAILABILITY.H
E:\MICROSOFT VISUAL STUDIO\VC\TOOLS\MSVC\14.28.29910\INCLUDE\XSTDDEF
E:\MICROSOFT VISUAL STUDIO\VC\TOOLS\MSVC\14.28.29910\INCLUDE\CSTDDEF
E:\MICROSOFT VISUAL STUDIO\VC\TOOLS\MSVC\14.28.29910\INCLUDE\XTR1COMMON
E:\MICROSOFT VISUAL STUDIO\VC\TOOLS\MSVC\14.28.29910\INCLUDE\INITIALIZER_LIST
E:\MICROSOFT VISUAL STUDIO\VC\TOOLS\MSVC\14.28.29910\INCLUDE\NEW
E:\MICROSOFT VISUAL STUDIO\VC\TOOLS\MSVC\14.28.29910\INCLUDE\EXCEPTION
E:\MICROSOFT VISUAL STUDIO\VC\TOOLS\MSVC\14.28.29910\INCLUDE\YVALS.H
E:\WINDOWS KITS\10\INCLUDE\10.0.19041.0\UCRT\CRTDBG.H
E:\MICROSOFT VISUAL STUDIO\VC\TOOLS\MSVC\14.28.29910\INCLUDE\VCRUNTIME_NEW_DEBUG.H
E:\MICROSOFT VISUAL STUDIO\VC\TOOLS\MSVC\14.28.29910\INCLUDE\VCRUNTIME_NEW.H
E:\MICROSOFT VISUAL STUDIO\VC\TOOLS\MSVC\14.28.29910\INCLUDE\CRTDEFS.H
E:\MICROSOFT VISUAL STUDIO\VC\TOOLS\MSVC\14.28.29910\INCLUDE\USE_ANSI.H
E:\MICROSOFT VISUAL STUDIO\VC\TOOLS\MSVC\14.28.29910\INCLUDE\TYPE_TRAITS
E:\WINDOWS KITS\10\INCLUDE\10.0.19041.0\UCRT\MALLOC.H
E:\MICROSOFT VISUAL STUDIO\VC\TOOLS\MSVC\14.28.29910\INCLUDE\VCRUNTIME_EXCEPTION.H
E:\MICROSOFT VISUAL STUDIO\VC\TOOLS\MSVC\14.28.29910\INCLUDE\EH.H
E:\WINDOWS KITS\10\INCLUDE\10.0.19041.0\UCRT\CORECRT_TERMINATE.H
E:\MICROSOFT VISUAL STUDIO\VC\TOOLS\MSVC\14.28.29910\INCLUDE\XATOMIC.H
E:\MICROSOFT VISUAL STUDIO\VC\TOOLS\MSVC\14.28.29910\INCLUDE\XUTILITY
E:\MICROSOFT VISUAL STUDIO\VC\TOOLS\MSVC\14.28.29910\INCLUDE\CSTRING
E:\WINDOWS KITS\10\INCLUDE\10.0.19041.0\UCRT\STRING.H
E:\WINDOWS KITS\10\INCLUDE\10.0.19041.0\UCRT\CORECRT_MEMORY.H
E:\MICROSOFT VISUAL STUDIO\VC\TOOLS\MSVC\14.28.29910\INCLUDE\UTILITY
E:\MICROSOFT VISUAL STUDIO\VC\TOOLS\MSVC\14.28.29910\INCLUDE\STRING
E:\MICROSOFT VISUAL STUDIO\VC\TOOLS\MSVC\14.28.29910\INCLUDE\XSTRING
E:\MICROSOFT VISUAL STUDIO\VC\TOOLS\MSVC\14.28.29910\INCLUDE\IOSFWD
E:\MICROSOFT VISUAL STUDIO\VC\TOOLS\MSVC\14.28.29910\INCLUDE\CCTYPE
E:\WINDOWS KITS\10\INCLUDE\10.0.19041.0\UCRT\CTYPE.H
E:\MICROSOFT VISUAL STUDIO\VC\TOOLS\MSVC\14.28.29910\INCLUDE\IOSTREAM
E:\MICROSOFT VISUAL STUDIO\VC\TOOLS\MSVC\14.28.29910\INCLUDE\ISTREAM
E:\MICROSOFT VISUAL STUDIO\VC\TOOLS\MSVC\14.28.29910\INCLUDE\OSTREAM
E:\MICROSOFT VISUAL STUDIO\VC\TOOLS\MSVC\14.28.29910\INCLUDE\IOS
E:\MICROSOFT VISUAL STUDIO\VC\TOOLS\MSVC\14.28.29910\INCLUDE\XLOCNUM
E:\MICROSOFT VISUAL STUDIO\VC\TOOLS\MSVC\14.28.29910\INCLUDE\CMATH
E:\MICROSOFT VISUAL STUDIO\VC\TOOLS\MSVC\14.28.29910\INCLUDE\ITERATOR
E:\MICROSOFT VISUAL STUDIO\VC\TOOLS\MSVC\14.28.29910\INCLUDE\STREAMBUF
E:\MICROSOFT VISUAL STUDIO\VC\TOOLS\MSVC\14.28.29910\INCLUDE\XIOSBASE
E:\WINDOWS KITS\10\INCLUDE\10.0.19041.0\UCRT\SHARE.H
E:\MICROSOFT VISUAL STUDIO\VC\TOOLS\MSVC\14.28.29910\INCLUDE\SYSTEM_ERROR
E:\MICROSOFT VISUAL STUDIO\VC\TOOLS\MSVC\14.28.29910\INCLUDE\__MSVC_SYSTEM_ERROR_ABI.HPP
E:\MICROSOFT VISUAL STUDIO\VC\TOOLS\MSVC\14.28.29910\INCLUDE\CERRNO
E:\MICROSOFT VISUAL STUDIO\VC\TOOLS\MSVC\14.28.29910\INCLUDE\STDEXCEPT
E:\MICROSOFT VISUAL STUDIO\VC\TOOLS\MSVC\14.28.29910\INCLUDE\XCALL_ONCE.H
E:\MICROSOFT VISUAL STUDIO\VC\TOOLS\MSVC\14.28.29910\INCLUDE\XERRC.H
E:\MICROSOFT VISUAL STUDIO\VC\TOOLS\MSVC\14.28.29910\INCLUDE\ATOMIC
E:\MICROSOFT VISUAL STUDIO\VC\TOOLS\MSVC\14.28.29910\INCLUDE\XTHREADS.H
E:\MICROSOFT VISUAL STUDIO\VC\TOOLS\MSVC\14.28.29910\INCLUDE\XTIMEC.H
E:\MICROSOFT VISUAL STUDIO\VC\TOOLS\MSVC\14.28.29910\INCLUDE\CTIME
E:\WINDOWS KITS\10\INCLUDE\10.0.19041.0\UCRT\TIME.H
E:\MICROSOFT VISUAL STUDIO\VC\TOOLS\MSVC\14.28.29910\INCLUDE\XLOCALE
E:\MICROSOFT VISUAL STUDIO\VC\TOOLS\MSVC\14.28.29910\INCLUDE\MEMORY
E:\MICROSOFT VISUAL STUDIO\VC\TOOLS\MSVC\14.28.29910\INCLUDE\TYPEINFO
E:\MICROSOFT VISUAL STUDIO\VC\TOOLS\MSVC\14.28.29910\INCLUDE\VCRUNTIME_TYPEINFO.H
E:\MICROSOFT VISUAL STUDIO\VC\TOOLS\MSVC\14.28.29910\INCLUDE\XFACET
E:\MICROSOFT VISUAL STUDIO\VC\TOOLS\MSVC\14.28.29910\INCLUDE\XLOCINFO
E:\MICROSOFT VISUAL STUDIO\VC\TOOLS\MSVC\14.28.29910\INCLUDE\XLOCINFO.H
E:\MICROSOFT VISUAL STUDIO\VC\TOOLS\MSVC\14.28.29910\INCLUDE\CLOCALE
E:\WINDOWS KITS\10\INCLUDE\10.0.19041.0\UCRT\LOCALE.H
E:\VISUALSTUDIO PROJECTS\PARALELNO PROGRAMIRANJE PROJEKAT1\FILEHANDLER.H
