^E:\VISUALSTUDIO PROJECTS\PP PROJEKAT\PARALLEL_FOR SOLUTION\FILEHANDLER.CPP|E:\VISUALSTUDIO PROJECTS\PP PROJEKAT\PARALLEL_FOR SOLUTION\MAIN.CPP|E:\VISUALSTUDIO PROJECTS\PP PROJEKAT\PARALLEL_FOR SOLUTION\MAPPER.CPP
E:\VISUALSTUDIO PROJECTS\PP PROJEKAT\PARALLEL_FOR SOLUTION\DEBUG\VC142.PDB
E:\VISUALSTUDIO PROJECTS\PP PROJEKAT\PARALLEL_FOR SOLUTION\DEBUG\VC142.IDB
E:\VISUALSTUDIO PROJECTS\PP PROJEKAT\PARALLEL_FOR SOLUTION\DEBUG\MAIN.OBJ
E:\VISUALSTUDIO PROJECTS\PP PROJEKAT\PARALLEL_FOR SOLUTION\DEBUG\MAPPER.OBJ
E:\VISUALSTUDIO PROJECTS\PP PROJEKAT\PARALLEL_FOR SOLUTION\DEBUG\FILEHANDLER.OBJ
^E:\VISUALSTUDIO PROJECTS\PP PROJEKAT\PARALLEL_FOR SOLUTION\FILEHANDLER.CPP
E:\VISUALSTUDIO PROJECTS\PP PROJEKAT\PARALLEL_FOR SOLUTION\DEBUG\VC142.PDB
^E:\VISUALSTUDIO PROJECTS\PP PROJEKAT\PARALLEL_FOR SOLUTION\MAPPER.CPP
E:\VISUALSTUDIO PROJECTS\PP PROJEKAT\PARALLEL_FOR SOLUTION\DEBUG\VC142.PDB
^E:\VISUALSTUDIO PROJECTS\PP PROJEKAT\PARALLEL_FOR SOLUTION\MAIN.CPP
E:\VISUALSTUDIO PROJECTS\PP PROJEKAT\PARALLEL_FOR SOLUTION\DEBUG\VC142.PDB
E:\VISUALSTUDIO PROJECTS\PP PROJEKAT\PARALLEL_FOR SOLUTION\DEBUG\VC142.IDB
E:\VISUALSTUDIO PROJECTS\PP PROJEKAT\PARALLEL_FOR SOLUTION\DEBUG\MAIN.OBJ
